%YAML 1.1
%TAG !u! tag:unity3d.com,2011:
--- !u!114 &11400000
MonoBehaviour:
  m_ObjectHideFlags: 0
  m_CorrespondingSourceObject: {fileID: 0}
  m_PrefabInstance: {fileID: 0}
  m_PrefabAsset: {fileID: 0}
  m_GameObject: {fileID: 0}
  m_Enabled: 1
  m_EditorHideFlags: 0
  m_Script: {fileID: 11500000, guid: 0cf1dab834d4ec34195b920ea7bbf9ec, type: 3}
  m_Name: HDRenderPipelineAsset
  m_EditorClassIdentifier: 
  m_Version: 1
  m_RenderPipelineResources: {fileID: 11400000, guid: 3ce144cff5783da45aa5d4fdc2da14b7,
    type: 2}
  m_FrameSettings:
    overrides: 0
    enableShadow: 1
    enableContactShadows: 1
    enableShadowMask: 1
    enableSSR: 1
    enableSSAO: 1
    enableSubsurfaceScattering: 1
    enableTransmission: 1
    enableAtmosphericScattering: 1
    enableVolumetrics: 1
    enableReprojectionForVolumetrics: 1
    enableLightLayers: 1
    diffuseGlobalDimmer: 1
    specularGlobalDimmer: 1
    shaderLitMode: 1
    enableDepthPrepassWithDeferredRendering: 0
    enableTransparentPrepass: 1
    enableMotionVectors: 1
    enableObjectMotionVectors: 1
    enableDecals: 1
    enableRoughRefraction: 1
    enableTransparentPostpass: 1
    enableDistortion: 1
    enablePostprocess: 1
    enableAsyncCompute: 0
    enableOpaqueObjects: 1
    enableTransparentObjects: 1
    enableRealtimePlanarReflection: 1
    enableMSAA: 0
    lightLoopSettings:
      overrides: 0
      enableTileAndCluster: 1
      enableComputeLightEvaluation: 1
      enableComputeLightVariants: 1
      enableComputeMaterialVariants: 1
      enableFptlForForwardOpaque: 1
      enableBigTilePrepass: 1
      isFptlEnabled: 1
  m_BakedOrCustomReflectionFrameSettings:
    overrides: 0
    enableShadow: 1
    enableContactShadows: 1
    enableShadowMask: 1
    enableSSR: 0
    enableSSAO: 1
    enableSubsurfaceScattering: 1
    enableTransmission: 1
    enableAtmosphericScattering: 1
    enableVolumetrics: 1
    enableReprojectionForVolumetrics: 1
    enableLightLayers: 1
    diffuseGlobalDimmer: 1
    specularGlobalDimmer: 1
    shaderLitMode: 1
    enableDepthPrepassWithDeferredRendering: 0
    enableTransparentPrepass: 1
    enableMotionVectors: 1
    enableObjectMotionVectors: 1
    enableDecals: 1
    enableRoughRefraction: 1
    enableTransparentPostpass: 1
    enableDistortion: 1
    enablePostprocess: 1
    enableAsyncCompute: 1
    enableOpaqueObjects: 1
    enableTransparentObjects: 1
    enableRealtimePlanarReflection: 1
    enableMSAA: 0
    lightLoopSettings:
      overrides: 0
      enableTileAndCluster: 1
      enableComputeLightEvaluation: 1
      enableComputeLightVariants: 1
      enableComputeMaterialVariants: 1
      enableFptlForForwardOpaque: 1
      enableBigTilePrepass: 1
      isFptlEnabled: 1
  m_RealtimeReflectionFrameSettings:
    overrides: 0
    enableShadow: 1
    enableContactShadows: 1
    enableShadowMask: 1
    enableSSR: 0
    enableSSAO: 1
    enableSubsurfaceScattering: 1
    enableTransmission: 1
    enableAtmosphericScattering: 1
    enableVolumetrics: 1
    enableReprojectionForVolumetrics: 1
    enableLightLayers: 1
    diffuseGlobalDimmer: 1
    specularGlobalDimmer: 1
    shaderLitMode: 1
    enableDepthPrepassWithDeferredRendering: 0
    enableTransparentPrepass: 1
    enableMotionVectors: 1
    enableObjectMotionVectors: 1
    enableDecals: 1
    enableRoughRefraction: 1
    enableTransparentPostpass: 1
    enableDistortion: 1
    enablePostprocess: 1
    enableAsyncCompute: 1
    enableOpaqueObjects: 1
    enableTransparentObjects: 1
    enableRealtimePlanarReflection: 1
    enableMSAA: 0
    lightLoopSettings:
      overrides: 0
      enableTileAndCluster: 1
      enableComputeLightEvaluation: 1
      enableComputeLightVariants: 1
      enableComputeMaterialVariants: 1
      enableFptlForForwardOpaque: 1
      enableBigTilePrepass: 1
      isFptlEnabled: 1
  renderPipelineSettings:
    supportShadowMask: 1
    supportSSR: 1
    supportSSAO: 1
    supportSubsurfaceScattering: 1
    increaseSssSampleCount: 1
    supportVolumetrics: 1
    increaseResolutionOfVolumetrics: 1
    supportLightLayers: 1
    supportedLitShaderMode: 3
    supportDecals: 1
    supportMSAA: 1
    msaaSampleCount: 8
    supportMotionVectors: 1
    supportRuntimeDebugDisplay: 1
    supportDitheringCrossFade: 1
    supportRayTracing: 0
    lightLoopSettings:
      cookieSize: 128
      cookieTexArraySize: 16
      pointCookieSize: 128
      cubeCookieTexArraySize: 16
      planarReflectionProbeCacheSize: 2
      planarReflectionTextureSize: 1024
      reflectionProbeCacheSize: 64
      reflectionCubemapSize: 512
      reflectionCacheCompressed: 0
      planarReflectionCacheCompressed: 0
      skyReflectionSize: 512
      skyLightingOverrideLayerMask:
        serializedVersion: 2
        m_Bits: 0
      supportFabricConvolution: 0
      maxDirectionalLightsOnScreen: 16
      maxPunctualLightsOnScreen: 512
      maxAreaLightsOnScreen: 64
      maxEnvLightsOnScreen: 64
      maxDecalsOnScreen: 512
    hdShadowInitParams:
      shadowAtlasResolution: 4096
      maxShadowRequests: 128
      shadowMapsDepthBits: 16
      useDynamicViewportRescale: 1
      punctualShadowQuality: 2
      directionalShadowQuality: 2
    decalSettings:
      drawDistance: 1000
      atlasWidth: 4096
      atlasHeight: 4096
      perChannelMask: 0
  allowShaderVariantStripping: 1
  enableSRPBatcher: 0
  diffusionProfileSettings: {fileID: 11400000, guid: 26bdddf49760c61438938733f07fa2a2,
    type: 2}
