%YAML 1.1
%TAG !u! tag:unity3d.com,2011:
--- !u!29 &1
OcclusionCullingSettings:
  m_ObjectHideFlags: 0
  serializedVersion: 2
  m_OcclusionBakeSettings:
    smallestOccluder: 5
    smallestHole: 0.25
    backfaceThreshold: 100
  m_SceneGUID: 00000000000000000000000000000000
  m_OcclusionCullingData: {fileID: 0}
--- !u!104 &2
RenderSettings:
  m_ObjectHideFlags: 0
  serializedVersion: 9
  m_Fog: 0
  m_FogColor: {r: 0.5, g: 0.5, b: 0.5, a: 1}
  m_FogMode: 3
  m_FogDensity: 0.01
  m_LinearFogStart: 0
  m_LinearFogEnd: 300
  m_AmbientSkyColor: {r: 0.08088237, g: 0.08088237, b: 0.08088237, a: 1}
  m_AmbientEquatorColor: {r: 0.114, g: 0.125, b: 0.133, a: 1}
  m_AmbientGroundColor: {r: 0.047, g: 0.043, b: 0.035, a: 1}
  m_AmbientIntensity: 1
  m_AmbientMode: 0
  m_SubtractiveShadowColor: {r: 0.42, g: 0.478, b: 0.627, a: 1}
  m_SkyboxMaterial: {fileID: 0}
  m_HaloStrength: 0.5
  m_FlareStrength: 1
  m_FlareFadeSpeed: 3
  m_HaloTexture: {fileID: 0}
  m_SpotCookie: {fileID: 10001, guid: 0000000000000000e000000000000000, type: 0}
  m_DefaultReflectionMode: 0
  m_DefaultReflectionResolution: 128
  m_ReflectionBounces: 1
  m_ReflectionIntensity: 1
  m_CustomReflection: {fileID: 0}
  m_Sun: {fileID: 0}
  m_IndirectSpecularColor: {r: 0, g: 0, b: 0, a: 1}
  m_UseRadianceAmbientProbe: 0
--- !u!157 &3
LightmapSettings:
  m_ObjectHideFlags: 0
  serializedVersion: 11
  m_GIWorkflowMode: 0
  m_GISettings:
    serializedVersion: 2
    m_BounceScale: 1
    m_IndirectOutputScale: 1
    m_AlbedoBoost: 1
    m_TemporalCoherenceThreshold: 1
    m_EnvironmentLightingMode: 0
    m_EnableBakedLightmaps: 1
    m_EnableRealtimeLightmaps: 1
  m_LightmapEditorSettings:
    serializedVersion: 10
    m_Resolution: 2
    m_BakeResolution: 40
    m_AtlasSize: 1024
    m_AO: 0
    m_AOMaxDistance: 1
    m_CompAOExponent: 1
    m_CompAOExponentDirect: 0
    m_Padding: 2
    m_LightmapParameters: {fileID: 0}
    m_LightmapsBakeMode: 1
    m_TextureCompression: 1
    m_FinalGather: 0
    m_FinalGatherFiltering: 1
    m_FinalGatherRayCount: 256
    m_ReflectionCompression: 2
    m_MixedBakeMode: 1
    m_BakeBackend: 0
    m_PVRSampling: 1
    m_PVRDirectSampleCount: 32
    m_PVRSampleCount: 500
    m_PVRBounces: 2
    m_PVRFilterTypeDirect: 0
    m_PVRFilterTypeIndirect: 0
    m_PVRFilterTypeAO: 0
    m_PVRFilteringMode: 0
    m_PVRCulling: 1
    m_PVRFilteringGaussRadiusDirect: 1
    m_PVRFilteringGaussRadiusIndirect: 5
    m_PVRFilteringGaussRadiusAO: 2
    m_PVRFilteringAtrousPositionSigmaDirect: 0.5
    m_PVRFilteringAtrousPositionSigmaIndirect: 2
    m_PVRFilteringAtrousPositionSigmaAO: 1
    m_ShowResolutionOverlay: 1
  m_LightingDataAsset: {fileID: 0}
  m_UseShadowmask: 0
--- !u!196 &4
NavMeshSettings:
  serializedVersion: 2
  m_ObjectHideFlags: 0
  m_BuildSettings:
    serializedVersion: 2
    agentTypeID: 0
    agentRadius: 0.5
    agentHeight: 2
    agentSlope: 45
    agentClimb: 0.4
    ledgeDropHeight: 0
    maxJumpAcrossDistance: 0
    minRegionArea: 2
    manualCellSize: 0
    cellSize: 0.16666667
    manualTileSize: 0
    tileSize: 256
    accuratePlacement: 0
    debug:
      m_Flags: 0
  m_NavMeshData: {fileID: 0}
--- !u!1 &46813642
GameObject:
  m_ObjectHideFlags: 0
  m_CorrespondingSourceObject: {fileID: 100000, guid: 9d1427ad240df40799a197d044bb4cc3,
    type: 3}
  m_PrefabInternal: {fileID: 628474969}
  serializedVersion: 6
  m_Component:
  - component: {fileID: 628474970}
  m_Layer: 0
  m_Name: Ground
  m_TagString: Untagged
  m_Icon: {fileID: 0}
  m_NavMeshLayer: 0
  m_StaticEditorFlags: 0
  m_IsActive: 1
--- !u!1 &87704708
GameObject:
  m_ObjectHideFlags: 0
  m_CorrespondingSourceObject: {fileID: 100004, guid: 9d1427ad240df40799a197d044bb4cc3,
    type: 3}
  m_PrefabInternal: {fileID: 628474969}
  serializedVersion: 6
  m_Component:
  - component: {fileID: 87704709}
  - component: {fileID: 87704711}
  - component: {fileID: 87704710}
  m_Layer: 0
  m_Name: Plane.194
  m_TagString: Untagged
  m_Icon: {fileID: 0}
  m_NavMeshLayer: 0
  m_StaticEditorFlags: 0
  m_IsActive: 1
--- !u!4 &87704709
Transform:
  m_ObjectHideFlags: 0
  m_CorrespondingSourceObject: {fileID: 400004, guid: 9d1427ad240df40799a197d044bb4cc3,
    type: 3}
  m_PrefabInternal: {fileID: 628474969}
  m_GameObject: {fileID: 87704708}
  m_LocalRotation: {x: 0, y: 0, z: 0.9544866, w: 0.29825386}
  m_LocalPosition: {x: 141.94685, y: 46.90602, z: -0.000029099889}
  m_LocalScale: {x: 0.99999994, y: 0.99999994, z: 1}
  m_Children: []
  m_Father: {fileID: 628474970}
  m_RootOrder: 1
  m_LocalEulerAnglesHint: {x: 0, y: 0, z: 0}
--- !u!23 &87704710
MeshRenderer:
  m_ObjectHideFlags: 0
  m_CorrespondingSourceObject: {fileID: 2300002, guid: 9d1427ad240df40799a197d044bb4cc3,
    type: 3}
  m_PrefabInternal: {fileID: 628474969}
  m_GameObject: {fileID: 87704708}
  m_Enabled: 1
  m_CastShadows: 1
  m_ReceiveShadows: 1
  m_DynamicOccludee: 1
  m_MotionVectors: 1
  m_LightProbeUsage: 1
  m_ReflectionProbeUsage: 1
  m_RenderingLayerMask: 4294967295
  m_Materials:
  - {fileID: 2100000, guid: 05a6462b5fca44df4b67ce7d40906d0f, type: 2}
  m_StaticBatchInfo:
    firstSubMesh: 0
    subMeshCount: 0
  m_StaticBatchRoot: {fileID: 0}
  m_ProbeAnchor: {fileID: 0}
  m_LightProbeVolumeOverride: {fileID: 0}
  m_ScaleInLightmap: 1
  m_PreserveUVs: 0
  m_IgnoreNormalsForChartDetection: 0
  m_ImportantGI: 0
  m_StitchLightmapSeams: 0
  m_SelectedEditorRenderState: 3
  m_MinimumChartSize: 4
  m_AutoUVMaxDistance: 0.5
  m_AutoUVMaxAngle: 89
  m_LightmapParameters: {fileID: 0}
  m_SortingLayerID: 0
  m_SortingLayer: 0
  m_SortingOrder: 0
--- !u!33 &87704711
MeshFilter:
  m_ObjectHideFlags: 0
  m_CorrespondingSourceObject: {fileID: 3300002, guid: 9d1427ad240df40799a197d044bb4cc3,
    type: 3}
  m_PrefabInternal: {fileID: 628474969}
  m_GameObject: {fileID: 87704708}
  m_Mesh: {fileID: 4300000, guid: 9d1427ad240df40799a197d044bb4cc3, type: 3}
--- !u!1 &133298209
GameObject:
  m_ObjectHideFlags: 0
  m_CorrespondingSourceObject: {fileID: 1332961122091336, guid: bc4f23d04e42f4b559542ad840db6530,
    type: 2}
  m_PrefabInternal: {fileID: 1148515640}
  serializedVersion: 6
  m_Component:
  - component: {fileID: 133298210}
  - component: {fileID: 133298213}
  - component: {fileID: 133298212}
  - component: {fileID: 133298211}
  m_Layer: 4
  m_Name: Tile
  m_TagString: Untagged
  m_Icon: {fileID: 0}
  m_NavMeshLayer: 0
  m_StaticEditorFlags: 0
  m_IsActive: 1
--- !u!4 &133298210
Transform:
  m_ObjectHideFlags: 0
  m_CorrespondingSourceObject: {fileID: 4314178560886020, guid: bc4f23d04e42f4b559542ad840db6530,
    type: 2}
  m_PrefabInternal: {fileID: 1148515640}
  m_GameObject: {fileID: 133298209}
  m_LocalRotation: {x: 0, y: 0, z: 0, w: 1}
  m_LocalPosition: {x: -25, y: 0, z: 25}
  m_LocalScale: {x: 0.5, y: 0.5, z: 0.5}
  m_Children: []
  m_Father: {fileID: 1756417332}
  m_RootOrder: 1
  m_LocalEulerAnglesHint: {x: 0, y: 0, z: 0}
--- !u!114 &133298211
MonoBehaviour:
  m_ObjectHideFlags: 0
  m_CorrespondingSourceObject: {fileID: 114732559181319944, guid: bc4f23d04e42f4b559542ad840db6530,
    type: 2}
  m_PrefabInternal: {fileID: 1148515640}
  m_GameObject: {fileID: 133298209}
  m_Enabled: 1
  m_EditorHideFlags: 0
  m_Script: {fileID: 11500000, guid: 2a91e8dd37cdd41efb4859b65aced7a2, type: 3}
  m_Name: 
  m_EditorClassIdentifier: 
  reflection: {fileID: 1756417328}
  waterBase: {fileID: 1756417330}
--- !u!23 &133298212
MeshRenderer:
  m_ObjectHideFlags: 0
  m_CorrespondingSourceObject: {fileID: 23657631953173692, guid: bc4f23d04e42f4b559542ad840db6530,
    type: 2}
  m_PrefabInternal: {fileID: 1148515640}
  m_GameObject: {fileID: 133298209}
  m_Enabled: 1
  m_CastShadows: 0
  m_ReceiveShadows: 0
  m_DynamicOccludee: 1
  m_MotionVectors: 1
  m_LightProbeUsage: 1
  m_ReflectionProbeUsage: 1
  m_RenderingLayerMask: 4294967295
  m_Materials:
  - {fileID: 2100000, guid: dba33a2bf8b23400bacf323fc2816a51, type: 2}
  m_StaticBatchInfo:
    firstSubMesh: 0
    subMeshCount: 0
  m_StaticBatchRoot: {fileID: 0}
  m_ProbeAnchor: {fileID: 0}
  m_LightProbeVolumeOverride: {fileID: 0}
  m_ScaleInLightmap: 1
  m_PreserveUVs: 0
  m_IgnoreNormalsForChartDetection: 0
  m_ImportantGI: 0
  m_StitchLightmapSeams: 0
  m_SelectedEditorRenderState: 3
  m_MinimumChartSize: 4
  m_AutoUVMaxDistance: 0.5
  m_AutoUVMaxAngle: 89
  m_LightmapParameters: {fileID: 0}
  m_SortingLayerID: 0
  m_SortingLayer: 0
  m_SortingOrder: 0
--- !u!33 &133298213
MeshFilter:
  m_ObjectHideFlags: 0
  m_CorrespondingSourceObject: {fileID: 33579986401955958, guid: bc4f23d04e42f4b559542ad840db6530,
    type: 2}
  m_PrefabInternal: {fileID: 1148515640}
  m_GameObject: {fileID: 133298209}
  m_Mesh: {fileID: 4300002, guid: 681e41ee1260343b395ca58745c94870, type: 3}
--- !u!1 &186375697
GameObject:
  m_ObjectHideFlags: 0
  m_CorrespondingSourceObject: {fileID: 0}
  m_PrefabInternal: {fileID: 0}
  serializedVersion: 6
  m_Component:
  - component: {fileID: 186375699}
  - component: {fileID: 186375698}
  m_Layer: 0
  m_Name: WaterReflectionCamera
  m_TagString: Untagged
  m_Icon: {fileID: 0}
  m_NavMeshLayer: 0
  m_StaticEditorFlags: 0
  m_IsActive: 1
--- !u!20 &186375698
Camera:
  m_ObjectHideFlags: 0
  m_CorrespondingSourceObject: {fileID: 0}
  m_PrefabInternal: {fileID: 0}
  m_GameObject: {fileID: 186375697}
  m_Enabled: 0
  serializedVersion: 2
  m_ClearFlags: 1
  m_BackGroundColor: {r: 1, g: 1, b: 1, a: 1}
  m_projectionMatrixMode: 1
  m_SensorSize: {x: 36, y: 24}
  m_LensShift: {x: 0, y: 0}
  m_FocalLength: 50
  m_NormalizedViewPortRect:
    serializedVersion: 2
    x: 0
    y: 0
    width: 1
    height: 1
  near clip plane: 0.3
  far clip plane: 1000
  field of view: 60
  orthographic: 0
  orthographic size: 5
  m_Depth: 0
  m_CullingMask:
    serializedVersion: 2
    m_Bits: 4294967279
  m_RenderingPath: 1
  m_TargetTexture: {fileID: 0}
  m_TargetDisplay: 0
  m_TargetEye: 3
  m_HDR: 0
  m_AllowMSAA: 1
  m_AllowDynamicResolution: 0
  m_ForceIntoRT: 0
  m_OcclusionCulling: 1
  m_StereoConvergence: 10
  m_StereoSeparation: 0.022
--- !u!4 &186375699
Transform:
  m_ObjectHideFlags: 0
  m_CorrespondingSourceObject: {fileID: 0}
  m_PrefabInternal: {fileID: 0}
  m_GameObject: {fileID: 186375697}
  m_LocalRotation: {x: 0.000000010204228, y: 0.9723699, z: 0.23344553, w: -0.00000004250364}
  m_LocalPosition: {x: 22.5, y: -133.16, z: 270.53}
  m_LocalScale: {x: 1, y: 1, z: 1}
  m_Children: []
  m_Father: {fileID: 0}
  m_RootOrder: 6
  m_LocalEulerAnglesHint: {x: 0, y: 0, z: 0}
--- !u!1 &324897002
GameObject:
  m_ObjectHideFlags: 0
  m_CorrespondingSourceObject: {fileID: 0}
  m_PrefabInternal: {fileID: 0}
  serializedVersion: 6
  m_Component:
  - component: {fileID: 324897004}
  - component: {fileID: 324897003}
  m_Layer: 0
  m_Name: LightBase
  m_TagString: Untagged
  m_Icon: {fileID: 0}
  m_NavMeshLayer: 0
  m_StaticEditorFlags: 0
  m_IsActive: 1
--- !u!108 &324897003
Light:
  m_ObjectHideFlags: 0
  m_CorrespondingSourceObject: {fileID: 0}
  m_PrefabInternal: {fileID: 0}
  m_GameObject: {fileID: 324897002}
  m_Enabled: 1
  serializedVersion: 8
  m_Type: 1
  m_Color: {r: 1, g: 0.95686275, b: 0.8392157, a: 1}
  m_Intensity: 1
  m_Range: 10
  m_SpotAngle: 30
  m_CookieSize: 10
  m_Shadows:
    m_Type: 2
    m_Resolution: -1
    m_CustomResolution: -1
    m_Strength: 1
    m_Bias: 0.05
    m_NormalBias: 0.4
    m_NearPlane: 0.2
  m_Cookie: {fileID: 0}
  m_DrawHalo: 0
  m_Flare: {fileID: 0}
  m_RenderMode: 0
  m_CullingMask:
    serializedVersion: 2
    m_Bits: 4294967295
  m_Lightmapping: 4
  m_LightShadowCasterMode: 0
  m_AreaSize: {x: 1, y: 1}
  m_BounceIntensity: 1
  m_ColorTemperature: 6570
  m_UseColorTemperature: 0
  m_ShadowRadius: 0
  m_ShadowAngle: 0
--- !u!4 &324897004
Transform:
  m_ObjectHideFlags: 0
  m_CorrespondingSourceObject: {fileID: 0}
  m_PrefabInternal: {fileID: 0}
  m_GameObject: {fileID: 324897002}
  m_LocalRotation: {x: 0.19221912, y: 0.7933369, z: -0.3149054, w: 0.48425502}
  m_LocalPosition: {x: 0, y: 57.7, z: 0}
  m_LocalScale: {x: 1, y: 1, z: 1}
  m_Children: []
  m_Father: {fileID: 0}
  m_RootOrder: 3
  m_LocalEulerAnglesHint: {x: 43.3, y: 117.2, z: 0}
--- !u!1 &341421963
GameObject:
  m_ObjectHideFlags: 0
  m_CorrespondingSourceObject: {fileID: 100000, guid: ed9ebaa8a9f8841d88aaa7d5e0551a99,
    type: 3}
  m_PrefabInternal: {fileID: 607257558}
  serializedVersion: 6
  m_Component:
  - component: {fileID: 607257559}
  - component: {fileID: 341421965}
  - component: {fileID: 341421964}
  m_Layer: 0
  m_Name: Mountain
  m_TagString: Untagged
  m_Icon: {fileID: 0}
  m_NavMeshLayer: 0
  m_StaticEditorFlags: 0
  m_IsActive: 1
--- !u!23 &341421964
MeshRenderer:
  m_ObjectHideFlags: 0
  m_CorrespondingSourceObject: {fileID: 2300000, guid: ed9ebaa8a9f8841d88aaa7d5e0551a99,
    type: 3}
  m_PrefabInternal: {fileID: 607257558}
  m_GameObject: {fileID: 341421963}
  m_Enabled: 1
  m_CastShadows: 1
  m_ReceiveShadows: 1
  m_DynamicOccludee: 1
  m_MotionVectors: 1
  m_LightProbeUsage: 1
  m_ReflectionProbeUsage: 1
  m_RenderingLayerMask: 4294967295
  m_Materials:
  - {fileID: 2100000, guid: 88127c0a741fb41419f98cddb1aef10b, type: 2}
  - {fileID: 2100000, guid: 88127c0a741fb41419f98cddb1aef10b, type: 2}
  m_StaticBatchInfo:
    firstSubMesh: 0
    subMeshCount: 0
  m_StaticBatchRoot: {fileID: 0}
  m_ProbeAnchor: {fileID: 0}
  m_LightProbeVolumeOverride: {fileID: 0}
  m_ScaleInLightmap: 1
  m_PreserveUVs: 0
  m_IgnoreNormalsForChartDetection: 0
  m_ImportantGI: 0
  m_StitchLightmapSeams: 0
  m_SelectedEditorRenderState: 3
  m_MinimumChartSize: 4
  m_AutoUVMaxDistance: 0.5
  m_AutoUVMaxAngle: 89
  m_LightmapParameters: {fileID: 0}
  m_SortingLayerID: 0
  m_SortingLayer: 0
  m_SortingOrder: 0
--- !u!33 &341421965
MeshFilter:
  m_ObjectHideFlags: 0
  m_CorrespondingSourceObject: {fileID: 3300000, guid: ed9ebaa8a9f8841d88aaa7d5e0551a99,
    type: 3}
  m_PrefabInternal: {fileID: 607257558}
  m_GameObject: {fileID: 341421963}
  m_Mesh: {fileID: 4300000, guid: ed9ebaa8a9f8841d88aaa7d5e0551a99, type: 3}
--- !u!1 &429300196
GameObject:
  m_ObjectHideFlags: 0
  m_CorrespondingSourceObject: {fileID: 0}
  m_PrefabInternal: {fileID: 0}
  serializedVersion: 6
  m_Component:
  - component: {fileID: 429300197}
  m_Layer: 0
  m_Name: Meshes
  m_TagString: Untagged
  m_Icon: {fileID: 0}
  m_NavMeshLayer: 0
  m_StaticEditorFlags: 0
  m_IsActive: 1
--- !u!4 &429300197
Transform:
  m_ObjectHideFlags: 0
  m_CorrespondingSourceObject: {fileID: 0}
  m_PrefabInternal: {fileID: 0}
  m_GameObject: {fileID: 429300196}
  m_LocalRotation: {x: 0, y: 0, z: 0, w: 1}
  m_LocalPosition: {x: 24.061573, y: -29.549648, z: 1.4756756}
  m_LocalScale: {x: 1, y: 1, z: 1}
  m_Children:
  - {fileID: 628474970}
  - {fileID: 607257559}
  - {fileID: 819789334}
  - {fileID: 1825545192}
  m_Father: {fileID: 0}
  m_RootOrder: 1
  m_LocalEulerAnglesHint: {x: 0, y: 0, z: 0}
--- !u!1001 &607257558
Prefab:
  m_ObjectHideFlags: 0
  serializedVersion: 2
  m_Modification:
    m_TransformParent: {fileID: 429300197}
    m_Modifications:
    - target: {fileID: 400000, guid: ed9ebaa8a9f8841d88aaa7d5e0551a99, type: 3}
      propertyPath: m_LocalPosition.x
      value: -12.761573
      objectReference: {fileID: 0}
    - target: {fileID: 400000, guid: ed9ebaa8a9f8841d88aaa7d5e0551a99, type: 3}
      propertyPath: m_LocalPosition.y
      value: 27.849648
      objectReference: {fileID: 0}
    - target: {fileID: 400000, guid: ed9ebaa8a9f8841d88aaa7d5e0551a99, type: 3}
      propertyPath: m_LocalPosition.z
      value: -12.275676
      objectReference: {fileID: 0}
    - target: {fileID: 400000, guid: ed9ebaa8a9f8841d88aaa7d5e0551a99, type: 3}
      propertyPath: m_LocalRotation.x
      value: 0.1478723
      objectReference: {fileID: 0}
    - target: {fileID: 400000, guid: ed9ebaa8a9f8841d88aaa7d5e0551a99, type: 3}
      propertyPath: m_LocalRotation.y
      value: 0.6914722
      objectReference: {fileID: 0}
    - target: {fileID: 400000, guid: ed9ebaa8a9f8841d88aaa7d5e0551a99, type: 3}
      propertyPath: m_LocalRotation.z
      value: 0.6914722
      objectReference: {fileID: 0}
    - target: {fileID: 400000, guid: ed9ebaa8a9f8841d88aaa7d5e0551a99, type: 3}
      propertyPath: m_LocalRotation.w
      value: -0.1478723
      objectReference: {fileID: 0}
    - target: {fileID: 400000, guid: ed9ebaa8a9f8841d88aaa7d5e0551a99, type: 3}
      propertyPath: m_RootOrder
      value: 1
      objectReference: {fileID: 0}
    - target: {fileID: 400000, guid: ed9ebaa8a9f8841d88aaa7d5e0551a99, type: 3}
      propertyPath: m_LocalScale.x
      value: 1.4999995
      objectReference: {fileID: 0}
    - target: {fileID: 400000, guid: ed9ebaa8a9f8841d88aaa7d5e0551a99, type: 3}
      propertyPath: m_LocalScale.y
      value: 1.4999995
      objectReference: {fileID: 0}
    - target: {fileID: 400000, guid: ed9ebaa8a9f8841d88aaa7d5e0551a99, type: 3}
      propertyPath: m_LocalScale.z
      value: 1.5
      objectReference: {fileID: 0}
    - target: {fileID: 100000, guid: ed9ebaa8a9f8841d88aaa7d5e0551a99, type: 3}
      propertyPath: m_Name
      value: Mountain
      objectReference: {fileID: 0}
    - target: {fileID: 2300000, guid: ed9ebaa8a9f8841d88aaa7d5e0551a99, type: 3}
      propertyPath: m_Materials.Array.data[0]
      value: 
      objectReference: {fileID: 2100000, guid: 88127c0a741fb41419f98cddb1aef10b, type: 2}
    - target: {fileID: 2300000, guid: ed9ebaa8a9f8841d88aaa7d5e0551a99, type: 3}
      propertyPath: m_Materials.Array.data[1]
      value: 
      objectReference: {fileID: 2100000, guid: 88127c0a741fb41419f98cddb1aef10b, type: 2}
    m_RemovedComponents: []
  m_SourcePrefab: {fileID: 100100000, guid: ed9ebaa8a9f8841d88aaa7d5e0551a99, type: 3}
  m_RootGameObject: {fileID: 341421963}
  m_IsPrefabAsset: 0
--- !u!4 &607257559
Transform:
  m_ObjectHideFlags: 0
  m_CorrespondingSourceObject: {fileID: 400000, guid: ed9ebaa8a9f8841d88aaa7d5e0551a99,
    type: 3}
  m_PrefabInternal: {fileID: 607257558}
  m_GameObject: {fileID: 341421963}
  m_LocalRotation: {x: 0.1478723, y: 0.6914722, z: 0.6914722, w: -0.1478723}
  m_LocalPosition: {x: -12.761573, y: 27.849648, z: -12.275676}
  m_LocalScale: {x: 1.4999995, y: 1.4999995, z: 1.5}
  m_Children: []
  m_Father: {fileID: 429300197}
  m_RootOrder: 1
  m_LocalEulerAnglesHint: {x: 0, y: 0, z: 0}
--- !u!1001 &628474969
Prefab:
  m_ObjectHideFlags: 0
  serializedVersion: 2
  m_Modification:
    m_TransformParent: {fileID: 429300197}
    m_Modifications:
    - target: {fileID: 400000, guid: 9d1427ad240df40799a197d044bb4cc3, type: 3}
      propertyPath: m_LocalPosition.x
      value: 9.938427
      objectReference: {fileID: 0}
    - target: {fileID: 400000, guid: 9d1427ad240df40799a197d044bb4cc3, type: 3}
      propertyPath: m_LocalPosition.y
      value: 29.549648
      objectReference: {fileID: 0}
    - target: {fileID: 400000, guid: 9d1427ad240df40799a197d044bb4cc3, type: 3}
      propertyPath: m_LocalPosition.z
      value: 106.324326
      objectReference: {fileID: 0}
    - target: {fileID: 400000, guid: 9d1427ad240df40799a197d044bb4cc3, type: 3}
      propertyPath: m_LocalRotation.x
      value: -0.62936157
      objectReference: {fileID: 0}
    - target: {fileID: 400000, guid: 9d1427ad240df40799a197d044bb4cc3, type: 3}
      propertyPath: m_LocalRotation.y
      value: 0.32234168
      objectReference: {fileID: 0}
    - target: {fileID: 400000, guid: 9d1427ad240df40799a197d044bb4cc3, type: 3}
      propertyPath: m_LocalRotation.z
      value: 0.32234168
      objectReference: {fileID: 0}
    - target: {fileID: 400000, guid: 9d1427ad240df40799a197d044bb4cc3, type: 3}
      propertyPath: m_LocalRotation.w
      value: 0.62936145
      objectReference: {fileID: 0}
    - target: {fileID: 400000, guid: 9d1427ad240df40799a197d044bb4cc3, type: 3}
      propertyPath: m_RootOrder
      value: 0
      objectReference: {fileID: 0}
    - target: {fileID: 400000, guid: 9d1427ad240df40799a197d044bb4cc3, type: 3}
      propertyPath: m_LocalEulerAnglesHint.x
      value: -90.00001
      objectReference: {fileID: 0}
    - target: {fileID: 400000, guid: 9d1427ad240df40799a197d044bb4cc3, type: 3}
      propertyPath: m_LocalEulerAnglesHint.z
      value: 54.241
      objectReference: {fileID: 0}
    - target: {fileID: 2300000, guid: 9d1427ad240df40799a197d044bb4cc3, type: 3}
      propertyPath: m_CastShadows
      value: 0
      objectReference: {fileID: 0}
    - target: {fileID: 400000, guid: 9d1427ad240df40799a197d044bb4cc3, type: 3}
      propertyPath: m_LocalScale.x
      value: 1
      objectReference: {fileID: 0}
    - target: {fileID: 400000, guid: 9d1427ad240df40799a197d044bb4cc3, type: 3}
      propertyPath: m_LocalScale.y
      value: 1
      objectReference: {fileID: 0}
    - target: {fileID: 400000, guid: 9d1427ad240df40799a197d044bb4cc3, type: 3}
      propertyPath: m_LocalScale.z
      value: 1
      objectReference: {fileID: 0}
    - target: {fileID: 100000, guid: 9d1427ad240df40799a197d044bb4cc3, type: 3}
      propertyPath: m_Name
      value: Ground
      objectReference: {fileID: 0}
    m_RemovedComponents: []
  m_SourcePrefab: {fileID: 100100000, guid: 9d1427ad240df40799a197d044bb4cc3, type: 3}
  m_RootGameObject: {fileID: 46813642}
  m_IsPrefabAsset: 0
--- !u!4 &628474970
Transform:
  m_ObjectHideFlags: 0
  m_CorrespondingSourceObject: {fileID: 400000, guid: 9d1427ad240df40799a197d044bb4cc3,
    type: 3}
  m_PrefabInternal: {fileID: 628474969}
  m_GameObject: {fileID: 46813642}
  m_LocalRotation: {x: -0.62936157, y: 0.32234168, z: 0.32234168, w: 0.62936145}
  m_LocalPosition: {x: 9.938427, y: 29.549648, z: 106.324326}
  m_LocalScale: {x: 1, y: 1, z: 1}
  m_Children:
  - {fileID: 1548125792}
  - {fileID: 87704709}
  - {fileID: 1722913826}
  - {fileID: 1323435524}
  m_Father: {fileID: 429300197}
  m_RootOrder: 0
  m_LocalEulerAnglesHint: {x: -90.00001, y: 0, z: 54.241}
--- !u!1 &720981492
GameObject:
  m_ObjectHideFlags: 0
  m_CorrespondingSourceObject: {fileID: 0}
  m_PrefabInternal: {fileID: 0}
  serializedVersion: 6
  m_Component:
  - component: {fileID: 720981497}
  - component: {fileID: 720981496}
  - component: {fileID: 720981495}
  - component: {fileID: 720981494}
  - component: {fileID: 720981493}
  - component: {fileID: 720981499}
  - component: {fileID: 720981498}
  - component: {fileID: 720981501}
  - component: {fileID: 720981500}
  m_Layer: 0
  m_Name: Camera
  m_TagString: MainCamera
  m_Icon: {fileID: 0}
  m_NavMeshLayer: 0
  m_StaticEditorFlags: 0
  m_IsActive: 1
--- !u!81 &720981493
AudioListener:
  m_ObjectHideFlags: 0
  m_CorrespondingSourceObject: {fileID: 0}
  m_PrefabInternal: {fileID: 0}
  m_GameObject: {fileID: 720981492}
  m_Enabled: 1
--- !u!124 &720981494
Behaviour:
  m_ObjectHideFlags: 0
  m_CorrespondingSourceObject: {fileID: 0}
  m_PrefabInternal: {fileID: 0}
  m_GameObject: {fileID: 720981492}
  m_Enabled: 1
--- !u!92 &720981495
Behaviour:
  m_ObjectHideFlags: 0
  m_CorrespondingSourceObject: {fileID: 0}
  m_PrefabInternal: {fileID: 0}
  m_GameObject: {fileID: 720981492}
  m_Enabled: 1
--- !u!20 &720981496
Camera:
  m_ObjectHideFlags: 0
  m_CorrespondingSourceObject: {fileID: 0}
  m_PrefabInternal: {fileID: 0}
  m_GameObject: {fileID: 720981492}
  m_Enabled: 1
  serializedVersion: 2
  m_ClearFlags: 1
  m_BackGroundColor: {r: 0, g: 0, b: 0, a: 0}
  m_projectionMatrixMode: 1
  m_SensorSize: {x: 36, y: 24}
  m_LensShift: {x: 0, y: 0}
  m_FocalLength: 50
  m_NormalizedViewPortRect:
    serializedVersion: 2
    x: 0
    y: 0
    width: 1
    height: 1
  near clip plane: 0.3
  far clip plane: 400
  field of view: 6
  orthographic: 0
  orthographic size: 5
  m_Depth: -1
  m_CullingMask:
    serializedVersion: 2
    m_Bits: 4294967295
  m_RenderingPath: 3
  m_TargetTexture: {fileID: 0}
  m_TargetDisplay: 0
  m_TargetEye: 3
  m_HDR: 0
  m_AllowMSAA: 1
  m_AllowDynamicResolution: 0
  m_ForceIntoRT: 0
  m_OcclusionCulling: 1
  m_StereoConvergence: 10
  m_StereoSeparation: 0.022
--- !u!4 &720981497
Transform:
  m_ObjectHideFlags: 0
  m_CorrespondingSourceObject: {fileID: 0}
  m_PrefabInternal: {fileID: 0}
  m_GameObject: {fileID: 720981492}
  m_LocalRotation: {x: 0, y: -0.97236997, z: 0.2334455, w: 0}
  m_LocalPosition: {x: 22.5, y: 132.5, z: 270.53}
  m_LocalScale: {x: 1, y: 1, z: 1}
  m_Children: []
  m_Father: {fileID: 0}
  m_RootOrder: 2
  m_LocalEulerAnglesHint: {x: 153, y: 0, z: 180}
--- !u!114 &720981498
MonoBehaviour:
  m_ObjectHideFlags: 0
  m_CorrespondingSourceObject: {fileID: 0}
  m_PrefabInternal: {fileID: 0}
  m_GameObject: {fileID: 720981492}
  m_Enabled: 0
  m_EditorHideFlags: 0
  m_Script: {fileID: 11500000, guid: 7fceaeb339b971b429c4cc600acabd13, type: 3}
  m_Name: 
  m_EditorClassIdentifier: 
  supportHDRTextures: 1
  supportDX11: 0
  isSupported: 1
  createdMaterials: []
  tweakMode: 0
  screenBlendMode: 1
  hdr: 0
  doHdr: 0
  sepBlurSpread: 2.2
  quality: 0
  bloomIntensity: 4
  bloomThreshold: 0.88
  bloomThresholdColor:
    r: 1
    g: 1
    b: 1
    a: 1
  bloomBlurIterations: 2
  hollywoodFlareBlurIterations: 2
  flareRotation: 0
  lensflareMode: 1
  hollyStretchWidth: 2.5
  lensflareIntensity: 0
  lensflareThreshold: 0.3
  lensFlareSaturation: 0.75
  flareColorA:
    r: 0.4
    g: 0.4
    b: 0.8
    a: 0.75
  flareColorB:
    r: 0.4
    g: 0.8
    b: 0.8
    a: 0.75
  flareColorC:
    r: 0.8
    g: 0.4
    b: 0.8
    a: 0.75
  flareColorD:
    r: 0.8
    g: 0.4
    b: 0
    a: 0.75
  lensFlareVignetteMask: {fileID: 2800000, guid: 95ef4804fe0be4c999ddaa383536cde8,
    type: 3}
  lensFlareShader: {fileID: 4800000, guid: 459fe69d2f6d74ddb92f04dbf45a866b, type: 3}
  lensFlareMaterial: {fileID: 0}
  screenBlendShader: {fileID: 4800000, guid: 7856cbff0a0ca45c787d5431eb805bb0, type: 3}
  screenBlend: {fileID: 0}
  blurAndFlaresShader: {fileID: 4800000, guid: be6e39cf196f146d5be72fbefb18ed75, type: 3}
  blurAndFlaresMaterial: {fileID: 0}
  brightPassFilterShader: {fileID: 4800000, guid: 0aeaa4cb29f5d4e9c8455f04c8575c8c,
    type: 3}
  brightPassFilterMaterial: {fileID: 0}
--- !u!114 &720981499
MonoBehaviour:
  m_ObjectHideFlags: 0
  m_CorrespondingSourceObject: {fileID: 0}
  m_PrefabInternal: {fileID: 0}
  m_GameObject: {fileID: 720981492}
  m_Enabled: 0
  m_EditorHideFlags: 0
  m_Script: {fileID: 11500000, guid: 1fd999d1b2cf94a45a5b0a47ce074bef, type: 3}
  m_Name: 
  m_EditorClassIdentifier: 
  supportHDRTextures: 1
  supportDX11: 0
  isSupported: 1
  createdMaterials: []
  redChannel:
    m_Curve:
    - time: 0
      value: 0
      inSlope: 1.25
      outSlope: 1.25
      tangentMode: 0
    - time: 1
      value: 1
      inSlope: 0
      outSlope: 0
      tangentMode: 0
    m_PreInfinity: 2
    m_PostInfinity: 2
    m_RotationOrder: 0
  greenChannel:
    m_Curve:
    - time: 0
      value: 0
      inSlope: 0
      outSlope: 0
      tangentMode: 0
    - time: 1
      value: 1
      inSlope: 0
      outSlope: 0
      tangentMode: 0
    m_PreInfinity: 2
    m_PostInfinity: 2
    m_RotationOrder: 4
  blueChannel:
    m_Curve:
    - time: 0
      value: 0
      inSlope: 0
      outSlope: 0
      tangentMode: 0
    - time: 1
      value: 1
      inSlope: 0
      outSlope: 0
      tangentMode: 0
    m_PreInfinity: 2
    m_PostInfinity: 2
    m_RotationOrder: 4
  useDepthCorrection: 0
  zCurve:
    m_Curve:
    - time: 0
      value: 0
      inSlope: 0
      outSlope: 0
      tangentMode: 0
    - time: 1
      value: 1
      inSlope: 0
      outSlope: 0
      tangentMode: 0
    m_PreInfinity: 2
    m_PostInfinity: 2
    m_RotationOrder: 4
  depthRedChannel:
    m_Curve:
    - time: 0
      value: 0
      inSlope: 0
      outSlope: 0
      tangentMode: 0
    - time: 1
      value: 1
      inSlope: 0
      outSlope: 0
      tangentMode: 0
    m_PreInfinity: 2
    m_PostInfinity: 2
    m_RotationOrder: 4
  depthGreenChannel:
    m_Curve:
    - time: 0
      value: 0
      inSlope: 0
      outSlope: 0
      tangentMode: 0
    - time: 1
      value: 1
      inSlope: 0
      outSlope: 0
      tangentMode: 0
    m_PreInfinity: 2
    m_PostInfinity: 2
    m_RotationOrder: 4
  depthBlueChannel:
    m_Curve:
    - time: 0
      value: 0
      inSlope: 0
      outSlope: 0
      tangentMode: 0
    - time: 1
      value: 1
      inSlope: 0
      outSlope: 0
      tangentMode: 0
    m_PreInfinity: 2
    m_PostInfinity: 2
    m_RotationOrder: 4
  ccMaterial: {fileID: 0}
  ccDepthMaterial: {fileID: 0}
  selectiveCcMaterial: {fileID: 0}
  rgbChannelTex: {fileID: 0}
  rgbDepthChannelTex: {fileID: 0}
  zCurveTex: {fileID: 0}
  saturation: 0.82
  selectiveCc: 0
  selectiveFromColor:
    r: 1
    g: 1
    b: 1
    a: 1
  selectiveToColor:
    r: 1
    g: 1
    b: 1
    a: 1
  mode: 0
  updateTextures: 1
  colorCorrectionCurvesShader: {fileID: 4800000, guid: 62bcade1028c24ca1a39760ed84b9487,
    type: 3}
  simpleColorCorrectionCurvesShader: {fileID: 4800000, guid: 438ddd58d82c84d9eb1fdc56111702e1,
    type: 3}
  colorCorrectionSelectiveShader: {fileID: 4800000, guid: e515e0f94cefc4c0db54b45cba621544,
    type: 3}
  updateTexturesOnStartup: 1
--- !u!114 &720981500
MonoBehaviour:
  m_ObjectHideFlags: 0
  m_CorrespondingSourceObject: {fileID: 0}
  m_PrefabInternal: {fileID: 0}
  m_GameObject: {fileID: 720981492}
  m_Enabled: 0
  m_EditorHideFlags: 0
  m_Script: {fileID: 11500000, guid: 9191284b058eef549b7108b5f04e1117, type: 3}
  m_Name: 
  m_EditorClassIdentifier: 
  supportHDRTextures: 1
  supportDX11: 0
  isSupported: 1
  createdMaterials: []
  intensityMultiplier: 0.2
  generalIntensity: 0.5
  blackIntensity: 1
  whiteIntensity: 1
  midGrey: 0.2
  dx11Grain: 0
  softness: 0
  monochrome: 0
  intensities: {x: 1, y: 1, z: 1}
  tiling: {x: 64, y: 64, z: 64}
  monochromeTiling: 64
  filterMode: 1
  noiseTexture: {fileID: 2800000, guid: 7a632f967e8ad42f5bd275898151ab6a, type: 3}
  noiseShader: {fileID: 4800000, guid: b0249d8c935344451aa4de6db76f0688, type: 3}
  noiseMaterial: {fileID: 0}
  dx11NoiseShader: {fileID: 4800000, guid: 8b30686bb4322ab42ad5eb50a0210b58, type: 3}
  dx11NoiseMaterial: {fileID: 0}
--- !u!114 &720981501
MonoBehaviour:
  m_ObjectHideFlags: 0
  m_CorrespondingSourceObject: {fileID: 0}
  m_PrefabInternal: {fileID: 0}
  m_GameObject: {fileID: 720981492}
  m_Enabled: 0
  m_EditorHideFlags: 0
  m_Script: {fileID: 11500000, guid: dd6d4281e5d7cd44d8c6e38bc2c1b8d8, type: 3}
  m_Name: 
  m_EditorClassIdentifier: 
  supportHDRTextures: 1
  supportDX11: 0
  isSupported: 1
  createdMaterials: []
  mode: 0
  intensity: 0.15
  chromaticAberration: 2.2
  axialAberration: 0.5
  blur: 0.03
  blurSpread: 0.75
  luminanceDependency: 0.25
  blurDistance: 2.5
  vignetteShader: {fileID: 4800000, guid: 627943dc7a9a74286b70a4f694a0acd5, type: 3}
  separableBlurShader: {fileID: 4800000, guid: e97c14fbb5ea04c3a902cc533d7fc5d1, type: 3}
  chromAberrationShader: {fileID: 4800000, guid: 2b4f29398d9484ccfa9fd220449f5eee,
    type: 3}
  m_VignetteMaterial: {fileID: 0}
  m_SeparableBlurMaterial: {fileID: 0}
  m_ChromAberrationMaterial: {fileID: 0}
--- !u!1 &808766253
GameObject:
  m_ObjectHideFlags: 0
  m_CorrespondingSourceObject: {fileID: 0}
  m_PrefabInternal: {fileID: 0}
  serializedVersion: 6
  m_Component:
  - component: {fileID: 808766255}
  - component: {fileID: 808766254}
  m_Layer: 0
  m_Name: LightFill
  m_TagString: Untagged
  m_Icon: {fileID: 0}
  m_NavMeshLayer: 0
  m_StaticEditorFlags: 0
  m_IsActive: 1
--- !u!108 &808766254
Light:
  m_ObjectHideFlags: 0
  m_CorrespondingSourceObject: {fileID: 0}
  m_PrefabInternal: {fileID: 0}
  m_GameObject: {fileID: 808766253}
  m_Enabled: 1
  serializedVersion: 8
  m_Type: 1
  m_Color: {r: 0.64705884, g: 0.7517241, b: 1, a: 1}
  m_Intensity: 0.4
  m_Range: 10
  m_SpotAngle: 30
  m_CookieSize: 10
  m_Shadows:
    m_Type: 0
    m_Resolution: -1
    m_CustomResolution: -1
    m_Strength: 1
    m_Bias: 0.05
    m_NormalBias: 0.4
    m_NearPlane: 0.2
  m_Cookie: {fileID: 0}
  m_DrawHalo: 0
  m_Flare: {fileID: 0}
  m_RenderMode: 0
  m_CullingMask:
    serializedVersion: 2
    m_Bits: 4294967295
  m_Lightmapping: 4
  m_LightShadowCasterMode: 0
  m_AreaSize: {x: 1, y: 1}
  m_BounceIntensity: 1
  m_ColorTemperature: 6570
  m_UseColorTemperature: 0
  m_ShadowRadius: 0
  m_ShadowAngle: 0
--- !u!4 &808766255
Transform:
  m_ObjectHideFlags: 0
  m_CorrespondingSourceObject: {fileID: 0}
  m_PrefabInternal: {fileID: 0}
  m_GameObject: {fileID: 808766253}
  m_LocalRotation: {x: 0.20657311, y: -0.77009916, z: 0.30568147, w: 0.52041686}
  m_LocalPosition: {x: 0, y: 57.7, z: 0}
  m_LocalScale: {x: 1, y: 1, z: 1}
  m_Children: []
  m_Father: {fileID: 0}
  m_RootOrder: 4
  m_LocalEulerAnglesHint: {x: 43.3, y: -111.9, z: 0}
--- !u!1 &819789333
GameObject:
  m_ObjectHideFlags: 0
  m_CorrespondingSourceObject: {fileID: 0}
  m_PrefabInternal: {fileID: 0}
  serializedVersion: 6
  m_Component:
  - component: {fileID: 819789334}
  - component: {fileID: 819789337}
  - component: {fileID: 819789336}
  - component: {fileID: 819789335}
  m_Layer: 0
  m_Name: Cube
  m_TagString: Untagged
  m_Icon: {fileID: 0}
  m_NavMeshLayer: 0
  m_StaticEditorFlags: 0
  m_IsActive: 1
--- !u!4 &819789334
Transform:
  m_ObjectHideFlags: 0
  m_CorrespondingSourceObject: {fileID: 0}
  m_PrefabInternal: {fileID: 0}
  m_GameObject: {fileID: 819789333}
  m_LocalRotation: {x: -0.17710404, y: -0.7495947, z: -0.22205286, w: 0.59785825}
  m_LocalPosition: {x: -11.22, y: 27.39, z: 13.03}
  m_LocalScale: {x: 5, y: 5, z: 5}
  m_Children: []
  m_Father: {fileID: 429300197}
  m_RootOrder: 2
  m_LocalEulerAnglesHint: {x: -33.002003, y: -102.850006, z: 0}
--- !u!23 &819789335
MeshRenderer:
  m_ObjectHideFlags: 0
  m_CorrespondingSourceObject: {fileID: 0}
  m_PrefabInternal: {fileID: 0}
  m_GameObject: {fileID: 819789333}
  m_Enabled: 1
  m_CastShadows: 1
  m_ReceiveShadows: 1
  m_DynamicOccludee: 1
  m_MotionVectors: 1
  m_LightProbeUsage: 1
  m_ReflectionProbeUsage: 1
  m_RenderingLayerMask: 4294967295
  m_Materials:
  - {fileID: 10303, guid: 0000000000000000f000000000000000, type: 0}
  m_StaticBatchInfo:
    firstSubMesh: 0
    subMeshCount: 0
  m_StaticBatchRoot: {fileID: 0}
  m_ProbeAnchor: {fileID: 0}
  m_LightProbeVolumeOverride: {fileID: 0}
  m_ScaleInLightmap: 1
  m_PreserveUVs: 1
  m_IgnoreNormalsForChartDetection: 0
  m_ImportantGI: 0
  m_StitchLightmapSeams: 0
  m_SelectedEditorRenderState: 3
  m_MinimumChartSize: 4
  m_AutoUVMaxDistance: 0.5
  m_AutoUVMaxAngle: 89
  m_LightmapParameters: {fileID: 0}
  m_SortingLayerID: 0
  m_SortingLayer: 0
  m_SortingOrder: 0
--- !u!65 &819789336
BoxCollider:
  m_ObjectHideFlags: 0
  m_CorrespondingSourceObject: {fileID: 0}
  m_PrefabInternal: {fileID: 0}
  m_GameObject: {fileID: 819789333}
  m_Material: {fileID: 0}
  m_IsTrigger: 0
  m_Enabled: 1
  serializedVersion: 2
  m_Size: {x: 1, y: 1, z: 1}
  m_Center: {x: 0, y: 0, z: 0}
--- !u!33 &819789337
MeshFilter:
  m_ObjectHideFlags: 0
  m_CorrespondingSourceObject: {fileID: 0}
  m_PrefabInternal: {fileID: 0}
  m_GameObject: {fileID: 819789333}
  m_Mesh: {fileID: 10202, guid: 0000000000000000e000000000000000, type: 0}
--- !u!1 &873322982
GameObject:
  m_ObjectHideFlags: 0
  m_CorrespondingSourceObject: {fileID: 0}
  m_PrefabInternal: {fileID: 0}
  serializedVersion: 6
  m_Component:
  - component: {fileID: 873322984}
  - component: {fileID: 873322983}
  - component: {fileID: 873322985}
  m_Layer: 0
  m_Name: WaterReflectionSceneCamera
  m_TagString: Untagged
  m_Icon: {fileID: 0}
  m_NavMeshLayer: 0
  m_StaticEditorFlags: 0
  m_IsActive: 1
--- !u!20 &873322983
Camera:
  m_ObjectHideFlags: 0
  m_CorrespondingSourceObject: {fileID: 0}
  m_PrefabInternal: {fileID: 0}
  m_GameObject: {fileID: 873322982}
  m_Enabled: 0
  serializedVersion: 2
  m_ClearFlags: 1
  m_BackGroundColor: {r: 1, g: 1, b: 1, a: 1}
  m_projectionMatrixMode: 1
  m_SensorSize: {x: 36, y: 24}
  m_LensShift: {x: 0, y: 0}
  m_FocalLength: 50
  m_NormalizedViewPortRect:
    serializedVersion: 2
    x: 0
    y: 0
    width: 1
    height: 1
  near clip plane: 0.3
  far clip plane: 1000
  field of view: 60
  orthographic: 0
  orthographic size: 5
  m_Depth: 0
  m_CullingMask:
    serializedVersion: 2
    m_Bits: 4294967279
  m_RenderingPath: 1
  m_TargetTexture: {fileID: 0}
  m_TargetDisplay: 0
  m_TargetEye: 3
  m_HDR: 0
  m_AllowMSAA: 1
  m_AllowDynamicResolution: 0
  m_ForceIntoRT: 0
  m_OcclusionCulling: 1
  m_StereoConvergence: 10
  m_StereoSeparation: 0.022
--- !u!4 &873322984
Transform:
  m_ObjectHideFlags: 0
  m_CorrespondingSourceObject: {fileID: 0}
  m_PrefabInternal: {fileID: 0}
  m_GameObject: {fileID: 873322982}
  m_LocalRotation: {x: 0.000000010204228, y: 0.9723699, z: 0.23344553, w: -0.00000004250364}
  m_LocalPosition: {x: 22.5, y: -133.16, z: 270.53}
  m_LocalScale: {x: 1, y: 1, z: 1}
  m_Children: []
  m_Father: {fileID: 0}
  m_RootOrder: 5
  m_LocalEulerAnglesHint: {x: 0, y: 0, z: 0}
--- !u!45 &873322985
Skybox:
  m_ObjectHideFlags: 0
  m_CorrespondingSourceObject: {fileID: 0}
  m_PrefabInternal: {fileID: 0}
  m_GameObject: {fileID: 873322982}
  m_Enabled: 1
  m_CustomSkybox: {fileID: 0}
--- !u!1 &1073326808
GameObject:
  m_ObjectHideFlags: 0
  m_CorrespondingSourceObject: {fileID: 1118143667962818, guid: bc4f23d04e42f4b559542ad840db6530,
    type: 2}
  m_PrefabInternal: {fileID: 1148515640}
  serializedVersion: 6
  m_Component:
  - component: {fileID: 1073326809}
  - component: {fileID: 1073326812}
  - component: {fileID: 1073326811}
  - component: {fileID: 1073326810}
  m_Layer: 4
  m_Name: Tile
  m_TagString: Untagged
  m_Icon: {fileID: 0}
  m_NavMeshLayer: 0
  m_StaticEditorFlags: 0
  m_IsActive: 1
--- !u!4 &1073326809
Transform:
  m_ObjectHideFlags: 0
  m_CorrespondingSourceObject: {fileID: 4135259794923000, guid: bc4f23d04e42f4b559542ad840db6530,
    type: 2}
  m_PrefabInternal: {fileID: 1148515640}
  m_GameObject: {fileID: 1073326808}
  m_LocalRotation: {x: 0, y: 0, z: 0, w: 1}
  m_LocalPosition: {x: 25, y: 0, z: -25}
  m_LocalScale: {x: 0.5, y: 0.5, z: 0.5}
  m_Children: []
  m_Father: {fileID: 1756417332}
  m_RootOrder: 3
  m_LocalEulerAnglesHint: {x: 0, y: 0, z: 0}
--- !u!114 &1073326810
MonoBehaviour:
  m_ObjectHideFlags: 0
  m_CorrespondingSourceObject: {fileID: 114837165811533896, guid: bc4f23d04e42f4b559542ad840db6530,
    type: 2}
  m_PrefabInternal: {fileID: 1148515640}
  m_GameObject: {fileID: 1073326808}
  m_Enabled: 1
  m_EditorHideFlags: 0
  m_Script: {fileID: 11500000, guid: 2a91e8dd37cdd41efb4859b65aced7a2, type: 3}
  m_Name: 
  m_EditorClassIdentifier: 
  reflection: {fileID: 1756417328}
  waterBase: {fileID: 1756417330}
--- !u!23 &1073326811
MeshRenderer:
  m_ObjectHideFlags: 0
  m_CorrespondingSourceObject: {fileID: 23257788009467054, guid: bc4f23d04e42f4b559542ad840db6530,
    type: 2}
  m_PrefabInternal: {fileID: 1148515640}
  m_GameObject: {fileID: 1073326808}
  m_Enabled: 1
  m_CastShadows: 0
  m_ReceiveShadows: 0
  m_DynamicOccludee: 1
  m_MotionVectors: 1
  m_LightProbeUsage: 1
  m_ReflectionProbeUsage: 1
  m_RenderingLayerMask: 4294967295
  m_Materials:
  - {fileID: 2100000, guid: dba33a2bf8b23400bacf323fc2816a51, type: 2}
  m_StaticBatchInfo:
    firstSubMesh: 0
    subMeshCount: 0
  m_StaticBatchRoot: {fileID: 0}
  m_ProbeAnchor: {fileID: 0}
  m_LightProbeVolumeOverride: {fileID: 0}
  m_ScaleInLightmap: 1
  m_PreserveUVs: 0
  m_IgnoreNormalsForChartDetection: 0
  m_ImportantGI: 0
  m_StitchLightmapSeams: 0
  m_SelectedEditorRenderState: 3
  m_MinimumChartSize: 4
  m_AutoUVMaxDistance: 0.5
  m_AutoUVMaxAngle: 89
  m_LightmapParameters: {fileID: 0}
  m_SortingLayerID: 0
  m_SortingLayer: 0
  m_SortingOrder: 0
--- !u!33 &1073326812
MeshFilter:
  m_ObjectHideFlags: 0
  m_CorrespondingSourceObject: {fileID: 33308188553907156, guid: bc4f23d04e42f4b559542ad840db6530,
    type: 2}
  m_PrefabInternal: {fileID: 1148515640}
  m_GameObject: {fileID: 1073326808}
  m_Mesh: {fileID: 4300002, guid: 681e41ee1260343b395ca58745c94870, type: 3}
--- !u!1001 &1148515640
Prefab:
  m_ObjectHideFlags: 0
  serializedVersion: 2
  m_Modification:
    m_TransformParent: {fileID: 0}
    m_Modifications:
    - target: {fileID: 4738923781260352, guid: bc4f23d04e42f4b559542ad840db6530, type: 2}
      propertyPath: m_LocalPosition.x
      value: 24.5
      objectReference: {fileID: 0}
    - target: {fileID: 4738923781260352, guid: bc4f23d04e42f4b559542ad840db6530, type: 2}
      propertyPath: m_LocalPosition.y
      value: -0.4
      objectReference: {fileID: 0}
    - target: {fileID: 4738923781260352, guid: bc4f23d04e42f4b559542ad840db6530, type: 2}
      propertyPath: m_LocalPosition.z
      value: 16.3
      objectReference: {fileID: 0}
    - target: {fileID: 4738923781260352, guid: bc4f23d04e42f4b559542ad840db6530, type: 2}
      propertyPath: m_LocalRotation.x
      value: 0
      objectReference: {fileID: 0}
    - target: {fileID: 4738923781260352, guid: bc4f23d04e42f4b559542ad840db6530, type: 2}
      propertyPath: m_LocalRotation.y
      value: 0
      objectReference: {fileID: 0}
    - target: {fileID: 4738923781260352, guid: bc4f23d04e42f4b559542ad840db6530, type: 2}
      propertyPath: m_LocalRotation.z
      value: 0
      objectReference: {fileID: 0}
    - target: {fileID: 4738923781260352, guid: bc4f23d04e42f4b559542ad840db6530, type: 2}
      propertyPath: m_LocalRotation.w
      value: 1
      objectReference: {fileID: 0}
    - target: {fileID: 4738923781260352, guid: bc4f23d04e42f4b559542ad840db6530, type: 2}
      propertyPath: m_RootOrder
      value: 0
      objectReference: {fileID: 0}
    m_RemovedComponents: []
  m_SourcePrefab: {fileID: 100100000, guid: bc4f23d04e42f4b559542ad840db6530, type: 2}
  m_RootGameObject: {fileID: 1756417326}
  m_IsPrefabAsset: 0
--- !u!1 &1323435523
GameObject:
  m_ObjectHideFlags: 0
  m_CorrespondingSourceObject: {fileID: 100008, guid: 9d1427ad240df40799a197d044bb4cc3,
    type: 3}
  m_PrefabInternal: {fileID: 628474969}
  serializedVersion: 6
  m_Component:
  - component: {fileID: 1323435524}
  - component: {fileID: 1323435526}
  - component: {fileID: 1323435525}
  m_Layer: 0
  m_Name: Plane.198
  m_TagString: Untagged
  m_Icon: {fileID: 0}
  m_NavMeshLayer: 0
  m_StaticEditorFlags: 0
  m_IsActive: 1
--- !u!4 &1323435524
Transform:
  m_ObjectHideFlags: 0
  m_CorrespondingSourceObject: {fileID: 400008, guid: 9d1427ad240df40799a197d044bb4cc3,
    type: 3}
  m_PrefabInternal: {fileID: 628474969}
  m_GameObject: {fileID: 1323435523}
  m_LocalRotation: {x: 0, y: 0, z: 0.8083996, w: 0.5886341}
  m_LocalPosition: {x: 81.1153, y: 35.084682, z: 0.0000016316769}
  m_LocalScale: {x: 1, y: 1, z: 1}
  m_Children: []
  m_Father: {fileID: 628474970}
  m_RootOrder: 3
  m_LocalEulerAnglesHint: {x: 0, y: 0, z: 0}
--- !u!23 &1323435525
MeshRenderer:
  m_ObjectHideFlags: 0
  m_CorrespondingSourceObject: {fileID: 2300006, guid: 9d1427ad240df40799a197d044bb4cc3,
    type: 3}
  m_PrefabInternal: {fileID: 628474969}
  m_GameObject: {fileID: 1323435523}
  m_Enabled: 1
  m_CastShadows: 1
  m_ReceiveShadows: 1
  m_DynamicOccludee: 1
  m_MotionVectors: 1
  m_LightProbeUsage: 1
  m_ReflectionProbeUsage: 1
  m_RenderingLayerMask: 4294967295
  m_Materials:
  - {fileID: 2100000, guid: 05a6462b5fca44df4b67ce7d40906d0f, type: 2}
  m_StaticBatchInfo:
    firstSubMesh: 0
    subMeshCount: 0
  m_StaticBatchRoot: {fileID: 0}
  m_ProbeAnchor: {fileID: 0}
  m_LightProbeVolumeOverride: {fileID: 0}
  m_ScaleInLightmap: 1
  m_PreserveUVs: 0
  m_IgnoreNormalsForChartDetection: 0
  m_ImportantGI: 0
  m_StitchLightmapSeams: 0
  m_SelectedEditorRenderState: 3
  m_MinimumChartSize: 4
  m_AutoUVMaxDistance: 0.5
  m_AutoUVMaxAngle: 89
  m_LightmapParameters: {fileID: 0}
  m_SortingLayerID: 0
  m_SortingLayer: 0
  m_SortingOrder: 0
--- !u!33 &1323435526
MeshFilter:
  m_ObjectHideFlags: 0
  m_CorrespondingSourceObject: {fileID: 3300006, guid: 9d1427ad240df40799a197d044bb4cc3,
    type: 3}
  m_PrefabInternal: {fileID: 628474969}
  m_GameObject: {fileID: 1323435523}
  m_Mesh: {fileID: 4300004, guid: 9d1427ad240df40799a197d044bb4cc3, type: 3}
--- !u!1 &1466283782
GameObject:
  m_ObjectHideFlags: 0
  m_CorrespondingSourceObject: {fileID: 1685541703459444, guid: bc4f23d04e42f4b559542ad840db6530,
    type: 2}
  m_PrefabInternal: {fileID: 1148515640}
  serializedVersion: 6
  m_Component:
  - component: {fileID: 1466283783}
  - component: {fileID: 1466283786}
  - component: {fileID: 1466283785}
  - component: {fileID: 1466283784}
  m_Layer: 4
  m_Name: Tile
  m_TagString: Untagged
  m_Icon: {fileID: 0}
  m_NavMeshLayer: 0
  m_StaticEditorFlags: 0
  m_IsActive: 1
--- !u!4 &1466283783
Transform:
  m_ObjectHideFlags: 0
  m_CorrespondingSourceObject: {fileID: 4564657504164732, guid: bc4f23d04e42f4b559542ad840db6530,
    type: 2}
  m_PrefabInternal: {fileID: 1148515640}
  m_GameObject: {fileID: 1466283782}
  m_LocalRotation: {x: 0, y: 0, z: 0, w: 1}
  m_LocalPosition: {x: -25, y: 0, z: -25}
  m_LocalScale: {x: 0.5, y: 0.5, z: 0.5}
  m_Children: []
  m_Father: {fileID: 1756417332}
  m_RootOrder: 2
  m_LocalEulerAnglesHint: {x: 0, y: 0, z: 0}
--- !u!114 &1466283784
MonoBehaviour:
  m_ObjectHideFlags: 0
  m_CorrespondingSourceObject: {fileID: 114680563075050496, guid: bc4f23d04e42f4b559542ad840db6530,
    type: 2}
  m_PrefabInternal: {fileID: 1148515640}
  m_GameObject: {fileID: 1466283782}
  m_Enabled: 1
  m_EditorHideFlags: 0
  m_Script: {fileID: 11500000, guid: 2a91e8dd37cdd41efb4859b65aced7a2, type: 3}
  m_Name: 
  m_EditorClassIdentifier: 
  reflection: {fileID: 1756417328}
  waterBase: {fileID: 1756417330}
--- !u!23 &1466283785
MeshRenderer:
  m_ObjectHideFlags: 0
  m_CorrespondingSourceObject: {fileID: 23015298636241096, guid: bc4f23d04e42f4b559542ad840db6530,
    type: 2}
  m_PrefabInternal: {fileID: 1148515640}
  m_GameObject: {fileID: 1466283782}
  m_Enabled: 1
  m_CastShadows: 0
  m_ReceiveShadows: 0
  m_DynamicOccludee: 1
  m_MotionVectors: 1
  m_LightProbeUsage: 1
  m_ReflectionProbeUsage: 1
  m_RenderingLayerMask: 4294967295
  m_Materials:
  - {fileID: 2100000, guid: dba33a2bf8b23400bacf323fc2816a51, type: 2}
  m_StaticBatchInfo:
    firstSubMesh: 0
    subMeshCount: 0
  m_StaticBatchRoot: {fileID: 0}
  m_ProbeAnchor: {fileID: 0}
  m_LightProbeVolumeOverride: {fileID: 0}
  m_ScaleInLightmap: 1
  m_PreserveUVs: 0
  m_IgnoreNormalsForChartDetection: 0
  m_ImportantGI: 0
  m_StitchLightmapSeams: 0
  m_SelectedEditorRenderState: 3
  m_MinimumChartSize: 4
  m_AutoUVMaxDistance: 0.5
  m_AutoUVMaxAngle: 89
  m_LightmapParameters: {fileID: 0}
  m_SortingLayerID: 0
  m_SortingLayer: 0
  m_SortingOrder: 0
--- !u!33 &1466283786
MeshFilter:
  m_ObjectHideFlags: 0
  m_CorrespondingSourceObject: {fileID: 33546415477021806, guid: bc4f23d04e42f4b559542ad840db6530,
    type: 2}
  m_PrefabInternal: {fileID: 1148515640}
  m_GameObject: {fileID: 1466283782}
  m_Mesh: {fileID: 4300002, guid: 681e41ee1260343b395ca58745c94870, type: 3}
--- !u!1 &1548125791
GameObject:
  m_ObjectHideFlags: 0
  m_CorrespondingSourceObject: {fileID: 100002, guid: 9d1427ad240df40799a197d044bb4cc3,
    type: 3}
  m_PrefabInternal: {fileID: 628474969}
  serializedVersion: 6
  m_Component:
  - component: {fileID: 1548125792}
  - component: {fileID: 1548125794}
  - component: {fileID: 1548125793}
  m_Layer: 0
  m_Name: Plane.193
  m_TagString: Untagged
  m_Icon: {fileID: 0}
  m_NavMeshLayer: 0
  m_StaticEditorFlags: 0
  m_IsActive: 1
--- !u!4 &1548125792
Transform:
  m_ObjectHideFlags: 0
  m_CorrespondingSourceObject: {fileID: 400002, guid: 9d1427ad240df40799a197d044bb4cc3,
    type: 3}
  m_PrefabInternal: {fileID: 628474969}
  m_GameObject: {fileID: 1548125791}
  m_LocalRotation: {x: 0, y: 0, z: -0.60588616, w: 0.79555136}
  m_LocalPosition: {x: 65.86491, y: 48.37563, z: 0.13447791}
  m_LocalScale: {x: 2.7432523, y: 2.7432523, z: 2.7432525}
  m_Children: []
  m_Father: {fileID: 628474970}
  m_RootOrder: 0
  m_LocalEulerAnglesHint: {x: 0, y: 0, z: 0}
--- !u!23 &1548125793
MeshRenderer:
  m_ObjectHideFlags: 0
  m_CorrespondingSourceObject: {fileID: 2300000, guid: 9d1427ad240df40799a197d044bb4cc3,
    type: 3}
  m_PrefabInternal: {fileID: 628474969}
  m_GameObject: {fileID: 1548125791}
  m_Enabled: 1
  m_CastShadows: 0
  m_ReceiveShadows: 1
  m_DynamicOccludee: 1
  m_MotionVectors: 1
  m_LightProbeUsage: 1
  m_ReflectionProbeUsage: 1
  m_RenderingLayerMask: 4294967295
  m_Materials:
  - {fileID: 2100000, guid: 05a6462b5fca44df4b67ce7d40906d0f, type: 2}
  m_StaticBatchInfo:
    firstSubMesh: 0
    subMeshCount: 0
  m_StaticBatchRoot: {fileID: 0}
  m_ProbeAnchor: {fileID: 0}
  m_LightProbeVolumeOverride: {fileID: 0}
  m_ScaleInLightmap: 1
  m_PreserveUVs: 0
  m_IgnoreNormalsForChartDetection: 0
  m_ImportantGI: 0
  m_StitchLightmapSeams: 0
  m_SelectedEditorRenderState: 3
  m_MinimumChartSize: 4
  m_AutoUVMaxDistance: 0.5
  m_AutoUVMaxAngle: 89
  m_LightmapParameters: {fileID: 0}
  m_SortingLayerID: 0
  m_SortingLayer: 0
  m_SortingOrder: 0
--- !u!33 &1548125794
MeshFilter:
  m_ObjectHideFlags: 0
  m_CorrespondingSourceObject: {fileID: 3300000, guid: 9d1427ad240df40799a197d044bb4cc3,
    type: 3}
  m_PrefabInternal: {fileID: 628474969}
  m_GameObject: {fileID: 1548125791}
  m_Mesh: {fileID: 4300002, guid: 9d1427ad240df40799a197d044bb4cc3, type: 3}
--- !u!1 &1722913825
GameObject:
  m_ObjectHideFlags: 0
  m_CorrespondingSourceObject: {fileID: 100006, guid: 9d1427ad240df40799a197d044bb4cc3,
    type: 3}
  m_PrefabInternal: {fileID: 628474969}
  serializedVersion: 6
  m_Component:
  - component: {fileID: 1722913826}
  - component: {fileID: 1722913828}
  - component: {fileID: 1722913827}
  m_Layer: 0
  m_Name: Plane.196
  m_TagString: Untagged
  m_Icon: {fileID: 0}
  m_NavMeshLayer: 0
  m_StaticEditorFlags: 0
  m_IsActive: 1
--- !u!4 &1722913826
Transform:
  m_ObjectHideFlags: 0
  m_CorrespondingSourceObject: {fileID: 400006, guid: 9d1427ad240df40799a197d044bb4cc3,
    type: 3}
  m_PrefabInternal: {fileID: 628474969}
  m_GameObject: {fileID: 1722913825}
  m_LocalRotation: {x: 0, y: 0, z: -0.6006066, w: 0.7995447}
  m_LocalPosition: {x: 65.422386, y: 87.383934, z: -0.0000006258487}
  m_LocalScale: {x: 1, y: 1, z: 1}
  m_Children: []
  m_Father: {fileID: 628474970}
  m_RootOrder: 2
  m_LocalEulerAnglesHint: {x: 0, y: 0, z: 0}
--- !u!23 &1722913827
MeshRenderer:
  m_ObjectHideFlags: 0
  m_CorrespondingSourceObject: {fileID: 2300004, guid: 9d1427ad240df40799a197d044bb4cc3,
    type: 3}
  m_PrefabInternal: {fileID: 628474969}
  m_GameObject: {fileID: 1722913825}
  m_Enabled: 1
  m_CastShadows: 1
  m_ReceiveShadows: 1
  m_DynamicOccludee: 1
  m_MotionVectors: 1
  m_LightProbeUsage: 1
  m_ReflectionProbeUsage: 1
  m_RenderingLayerMask: 4294967295
  m_Materials:
  - {fileID: 2100000, guid: 05a6462b5fca44df4b67ce7d40906d0f, type: 2}
  m_StaticBatchInfo:
    firstSubMesh: 0
    subMeshCount: 0
  m_StaticBatchRoot: {fileID: 0}
  m_ProbeAnchor: {fileID: 0}
  m_LightProbeVolumeOverride: {fileID: 0}
  m_ScaleInLightmap: 1
  m_PreserveUVs: 0
  m_IgnoreNormalsForChartDetection: 0
  m_ImportantGI: 0
  m_StitchLightmapSeams: 0
  m_SelectedEditorRenderState: 3
  m_MinimumChartSize: 4
  m_AutoUVMaxDistance: 0.5
  m_AutoUVMaxAngle: 89
  m_LightmapParameters: {fileID: 0}
  m_SortingLayerID: 0
  m_SortingLayer: 0
  m_SortingOrder: 0
--- !u!33 &1722913828
MeshFilter:
  m_ObjectHideFlags: 0
  m_CorrespondingSourceObject: {fileID: 3300004, guid: 9d1427ad240df40799a197d044bb4cc3,
    type: 3}
  m_PrefabInternal: {fileID: 628474969}
  m_GameObject: {fileID: 1722913825}
  m_Mesh: {fileID: 4300006, guid: 9d1427ad240df40799a197d044bb4cc3, type: 3}
--- !u!1 &1756417326
GameObject:
  m_ObjectHideFlags: 0
  m_CorrespondingSourceObject: {fileID: 1939477270973900, guid: bc4f23d04e42f4b559542ad840db6530,
    type: 2}
  m_PrefabInternal: {fileID: 1148515640}
  serializedVersion: 6
  m_Component:
  - component: {fileID: 1756417332}
  - component: {fileID: 1756417331}
  - component: {fileID: 1756417330}
  - component: {fileID: 1756417329}
  - component: {fileID: 1756417328}
  - component: {fileID: 1756417327}
  m_Layer: 0
  m_Name: Water
  m_TagString: Untagged
  m_Icon: {fileID: 0}
  m_NavMeshLayer: 0
  m_StaticEditorFlags: 0
  m_IsActive: 1
--- !u!114 &1756417327
MonoBehaviour:
  m_ObjectHideFlags: 0
  m_CorrespondingSourceObject: {fileID: 114433818199530754, guid: bc4f23d04e42f4b559542ad840db6530,
    type: 2}
  m_PrefabInternal: {fileID: 1148515640}
  m_GameObject: {fileID: 1756417326}
  m_Enabled: 1
  m_EditorHideFlags: 0
  m_Script: {fileID: 11500000, guid: 42e7f46d0e5a84171a3909479c1646ba, type: 3}
  m_Name: 
  m_EditorClassIdentifier: 
--- !u!114 &1756417328
MonoBehaviour:
  m_ObjectHideFlags: 0
  m_CorrespondingSourceObject: {fileID: 114830763758838478, guid: bc4f23d04e42f4b559542ad840db6530,
    type: 2}
  m_PrefabInternal: {fileID: 1148515640}
  m_GameObject: {fileID: 1756417326}
  m_Enabled: 1
  m_EditorHideFlags: 0
  m_Script: {fileID: 11500000, guid: 4185bc77c7194462ca3b1097ef4a5de0, type: 3}
  m_Name: 
  m_EditorClassIdentifier: 
  reflectionMask:
    serializedVersion: 2
    m_Bits: 4294967295
  reflectSkybox: 1
  clearColor: {r: 1, g: 1, b: 1, a: 1}
  reflectionSampler: _ReflectionTex
  clipPlaneOffset: 0.07
--- !u!114 &1756417329
MonoBehaviour:
  m_ObjectHideFlags: 0
  m_CorrespondingSourceObject: {fileID: 114324077930030170, guid: bc4f23d04e42f4b559542ad840db6530,
    type: 2}
  m_PrefabInternal: {fileID: 1148515640}
  m_GameObject: {fileID: 1756417326}
  m_Enabled: 1
  m_EditorHideFlags: 0
  m_Script: {fileID: 11500000, guid: de2ab2b9ac93bb544b9552e49030371b, type: 3}
  m_Name: 
  m_EditorClassIdentifier: 
  specularLight: {fileID: 0}
--- !u!114 &1756417330
MonoBehaviour:
  m_ObjectHideFlags: 0
  m_CorrespondingSourceObject: {fileID: 114961008860332776, guid: bc4f23d04e42f4b559542ad840db6530,
    type: 2}
  m_PrefabInternal: {fileID: 1148515640}
  m_GameObject: {fileID: 1756417326}
  m_Enabled: 0
  m_EditorHideFlags: 0
  m_Script: {fileID: 11500000, guid: a1da353243062479a9b31c85074a796b, type: 3}
  m_Name: 
  m_EditorClassIdentifier: 
  sharedMaterial: {fileID: 2100000, guid: dba33a2bf8b23400bacf323fc2816a51, type: 2}
  waterQuality: 2
  edgeBlend: 1
--- !u!114 &1756417331
MonoBehaviour:
  m_ObjectHideFlags: 0
  m_CorrespondingSourceObject: {fileID: 114194312377525914, guid: bc4f23d04e42f4b559542ad840db6530,
    type: 2}
  m_PrefabInternal: {fileID: 1148515640}
  m_GameObject: {fileID: 1756417326}
  m_Enabled: 1
  m_EditorHideFlags: 0
  m_Script: {fileID: 11500000, guid: efe2395ac3fa44a8cae53a4d4f5f3159, type: 3}
  m_Name: 
  m_EditorClassIdentifier: 
--- !u!4 &1756417332
Transform:
  m_ObjectHideFlags: 0
  m_CorrespondingSourceObject: {fileID: 4738923781260352, guid: bc4f23d04e42f4b559542ad840db6530,
    type: 2}
  m_PrefabInternal: {fileID: 1148515640}
  m_GameObject: {fileID: 1756417326}
  m_LocalRotation: {x: 0, y: 0, z: 0, w: 1}
  m_LocalPosition: {x: 24.5, y: -0.4, z: 16.3}
  m_LocalScale: {x: 1, y: 1, z: 1}
  m_Children:
  - {fileID: 1766231117}
  - {fileID: 133298210}
  - {fileID: 1466283783}
  - {fileID: 1073326809}
  m_Father: {fileID: 0}
  m_RootOrder: 0
  m_LocalEulerAnglesHint: {x: 0, y: 0, z: 0}
--- !u!1 &1766231116
GameObject:
  m_ObjectHideFlags: 0
  m_CorrespondingSourceObject: {fileID: 1694793920097310, guid: bc4f23d04e42f4b559542ad840db6530,
    type: 2}
  m_PrefabInternal: {fileID: 1148515640}
  serializedVersion: 6
  m_Component:
  - component: {fileID: 1766231117}
  - component: {fileID: 1766231120}
  - component: {fileID: 1766231119}
  - component: {fileID: 1766231118}
  m_Layer: 4
  m_Name: Tile
  m_TagString: Untagged
  m_Icon: {fileID: 0}
  m_NavMeshLayer: 0
  m_StaticEditorFlags: 0
  m_IsActive: 1
--- !u!4 &1766231117
Transform:
  m_ObjectHideFlags: 0
  m_CorrespondingSourceObject: {fileID: 4583580542739222, guid: bc4f23d04e42f4b559542ad840db6530,
    type: 2}
  m_PrefabInternal: {fileID: 1148515640}
  m_GameObject: {fileID: 1766231116}
  m_LocalRotation: {x: 0, y: 0, z: 0, w: 1}
  m_LocalPosition: {x: 25, y: 0, z: 25}
  m_LocalScale: {x: 0.5, y: 0.5, z: 0.5}
  m_Children: []
  m_Father: {fileID: 1756417332}
  m_RootOrder: 0
  m_LocalEulerAnglesHint: {x: 0, y: 0, z: 0}
--- !u!114 &1766231118
MonoBehaviour:
  m_ObjectHideFlags: 0
  m_CorrespondingSourceObject: {fileID: 114536972873975646, guid: bc4f23d04e42f4b559542ad840db6530,
    type: 2}
  m_PrefabInternal: {fileID: 1148515640}
  m_GameObject: {fileID: 1766231116}
  m_Enabled: 1
  m_EditorHideFlags: 0
  m_Script: {fileID: 11500000, guid: 2a91e8dd37cdd41efb4859b65aced7a2, type: 3}
  m_Name: 
  m_EditorClassIdentifier: 
  reflection: {fileID: 1756417328}
  waterBase: {fileID: 1756417330}
--- !u!23 &1766231119
MeshRenderer:
  m_ObjectHideFlags: 0
  m_CorrespondingSourceObject: {fileID: 23600363526156212, guid: bc4f23d04e42f4b559542ad840db6530,
    type: 2}
  m_PrefabInternal: {fileID: 1148515640}
  m_GameObject: {fileID: 1766231116}
  m_Enabled: 1
  m_CastShadows: 0
  m_ReceiveShadows: 0
  m_DynamicOccludee: 1
  m_MotionVectors: 1
  m_LightProbeUsage: 1
  m_ReflectionProbeUsage: 1
  m_RenderingLayerMask: 4294967295
  m_Materials:
  - {fileID: 2100000, guid: dba33a2bf8b23400bacf323fc2816a51, type: 2}
  m_StaticBatchInfo:
    firstSubMesh: 0
    subMeshCount: 0
  m_StaticBatchRoot: {fileID: 0}
  m_ProbeAnchor: {fileID: 0}
  m_LightProbeVolumeOverride: {fileID: 0}
  m_ScaleInLightmap: 1
  m_PreserveUVs: 0
  m_IgnoreNormalsForChartDetection: 0
  m_ImportantGI: 0
  m_StitchLightmapSeams: 0
  m_SelectedEditorRenderState: 3
  m_MinimumChartSize: 4
  m_AutoUVMaxDistance: 0.5
  m_AutoUVMaxAngle: 89
  m_LightmapParameters: {fileID: 0}
  m_SortingLayerID: 0
  m_SortingLayer: 0
  m_SortingOrder: 0
--- !u!33 &1766231120
MeshFilter:
  m_ObjectHideFlags: 0
  m_CorrespondingSourceObject: {fileID: 33087367272391590, guid: bc4f23d04e42f4b559542ad840db6530,
    type: 2}
  m_PrefabInternal: {fileID: 1148515640}
  m_GameObject: {fileID: 1766231116}
  m_Mesh: {fileID: 4300002, guid: 681e41ee1260343b395ca58745c94870, type: 3}
--- !u!1 &1825545191
GameObject:
  m_ObjectHideFlags: 0
  m_CorrespondingSourceObject: {fileID: 0}
  m_PrefabInternal: {fileID: 0}
  serializedVersion: 6
  m_Component:
  - component: {fileID: 1825545192}
  - component: {fileID: 1825545195}
  - component: {fileID: 1825545194}
  - component: {fileID: 1825545193}
  m_Layer: 0
  m_Name: Cylinder
  m_TagString: Untagged
  m_Icon: {fileID: 0}
  m_NavMeshLayer: 0
  m_StaticEditorFlags: 0
  m_IsActive: 1
--- !u!4 &1825545192
Transform:
  m_ObjectHideFlags: 0
  m_CorrespondingSourceObject: {fileID: 0}
  m_PrefabInternal: {fileID: 0}
  m_GameObject: {fileID: 1825545191}
  m_LocalRotation: {x: 0, y: 0, z: 0, w: 1}
  m_LocalPosition: {x: 14.63, y: 29.77, z: 20.11}
  m_LocalScale: {x: 3, y: 3, z: 3}
  m_Children: []
  m_Father: {fileID: 429300197}
  m_RootOrder: 3
  m_LocalEulerAnglesHint: {x: 0, y: 0, z: 0}
--- !u!23 &1825545193
MeshRenderer:
  m_ObjectHideFlags: 0
  m_CorrespondingSourceObject: {fileID: 0}
  m_PrefabInternal: {fileID: 0}
  m_GameObject: {fileID: 1825545191}
  m_Enabled: 1
  m_CastShadows: 1
  m_ReceiveShadows: 1
  m_DynamicOccludee: 1
  m_MotionVectors: 1
  m_LightProbeUsage: 1
  m_ReflectionProbeUsage: 1
  m_RenderingLayerMask: 4294967295
  m_Materials:
  - {fileID: 10303, guid: 0000000000000000f000000000000000, type: 0}
  m_StaticBatchInfo:
    firstSubMesh: 0
    subMeshCount: 0
  m_StaticBatchRoot: {fileID: 0}
  m_ProbeAnchor: {fileID: 0}
  m_LightProbeVolumeOverride: {fileID: 0}
  m_ScaleInLightmap: 1
  m_PreserveUVs: 1
  m_IgnoreNormalsForChartDetection: 0
  m_ImportantGI: 0
  m_StitchLightmapSeams: 0
  m_SelectedEditorRenderState: 3
  m_MinimumChartSize: 4
  m_AutoUVMaxDistance: 0.5
  m_AutoUVMaxAngle: 89
  m_LightmapParameters: {fileID: 0}
  m_SortingLayerID: 0
  m_SortingLayer: 0
  m_SortingOrder: 0
--- !u!136 &1825545194
CapsuleCollider:
  m_ObjectHideFlags: 0
  m_CorrespondingSourceObject: {fileID: 0}
  m_PrefabInternal: {fileID: 0}
  m_GameObject: {fileID: 1825545191}
  m_Material: {fileID: 0}
  m_IsTrigger: 0
  m_Enabled: 1
  m_Radius: 0.5
  m_Height: 2
  m_Direction: 1
  m_Center: {x: 0, y: 0, z: 0}
--- !u!33 &1825545195
MeshFilter:
  m_ObjectHideFlags: 0
  m_CorrespondingSourceObject: {fileID: 0}
  m_PrefabInternal: {fileID: 0}
  m_GameObject: {fileID: 1825545191}
  m_Mesh: {fileID: 10206, guid: 0000000000000000e000000000000000, type: 0}
