# File produced by Open Asset Import Library (http://www.assimp.sf.net)
# (assimp v3.1.193236683)

mtllib BubbleYogaMatte.mtl

# 386 vertex positions
v  -84.7789 2.86283e-06 17.5024
v  -86.5667 1.3959e-08 1.88561e-08
v  -84.7789 -17.5024 2.8668e-06
v  -83.1005 -17.1477 17.1477
v  -79.6248 5.44462e-06 33.9658
v  -78.1853 -16.4107 33.3397
v  -71.6044 7.92292e-06 48.6478
v  -70.4266 -15.6648 47.8382
v  -61.2119 9.96601e-06 61.2119
v  -60.2494 -15.2912 60.2494
v  -79.6248 -33.9658 5.44624e-06
v  -78.1853 -33.3396 16.4107
v  -73.8471 -31.9405 31.9405
v  -66.8941 -30.3666 45.7913
v  -57.5367 -29.544 57.5367
v  -71.6044 -48.6478 7.92194e-06
v  -70.4266 -47.8382 15.6648
v  -66.8941 -45.7912 30.3666
v  -61.3981 -43.1512 43.1513
v  -53.6387 -41.7082 53.6387
v  -61.2119 -61.2119 9.96366e-06
v  -60.2494 -60.2494 15.2912
v  -57.5367 -57.5367 29.544
v  -53.6387 -53.6387 41.7082
v  -49.9793 -49.9793 49.9793
v  -84.7789 17.5024 -2.83622e-06
v  -83.1005 17.1477 17.1477
v  -79.6248 33.9658 -5.43376e-06
v  -78.1853 33.3397 16.4107
v  -71.6044 48.6478 -7.92951e-06
v  -70.4266 47.8382 15.6648
v  -61.2119 61.2119 -9.9817e-06
v  -60.2494 60.2494 15.2912
v  -78.1853 16.4107 33.3397
v  -73.8471 31.9405 31.9405
v  -66.8941 45.7913 30.3666
v  -57.5367 57.5367 29.544
v  -70.4266 15.6648 47.8382
v  -66.8941 30.3666 45.7912
v  -61.3981 43.1512 43.1512
v  -53.6387 53.6387 41.7082
v  -60.2494 15.2912 60.2494
v  -57.5367 29.544 57.5367
v  -53.6387 41.7082 53.6387
v  -49.9793 49.9793 49.9793
v  -84.7789 -2.84019e-06 -17.5024
v  -83.1005 17.1477 -17.1477
v  -79.6248 -5.43538e-06 -33.9658
v  -78.1853 16.4107 -33.3397
v  -71.6044 -7.92852e-06 -48.6478
v  -70.4266 15.6648 -47.8382
v  -61.2119 -9.97935e-06 -61.2119
v  -60.2494 15.2912 -60.2494
v  -78.1853 33.3396 -16.4107
v  -73.8471 31.9405 -31.9405
v  -66.8941 30.3666 -45.7913
v  -57.5367 29.544 -57.5367
v  -70.4266 47.8382 -15.6648
v  -66.8941 45.7912 -30.3666
v  -61.3981 43.1512 -43.1513
v  -53.6387 41.7082 -53.6387
v  -60.2494 60.2494 -15.2912
v  -57.5367 57.5367 -29.544
v  -53.6387 53.6387 -41.7082
v  -49.9793 49.9793 -49.9793
v  -83.1005 -17.1477 -17.1477
v  -78.1853 -33.3397 -16.4107
v  -70.4266 -47.8382 -15.6648
v  -60.2494 -60.2494 -15.2912
v  -78.1853 -16.4107 -33.3397
v  -73.8471 -31.9405 -31.9405
v  -66.8941 -45.7913 -30.3666
v  -57.5367 -57.5367 -29.544
v  -70.4266 -15.6648 -47.8382
v  -66.8941 -30.3666 -45.7912
v  -61.3981 -43.1512 -43.1512
v  -53.6387 -53.6387 -41.7082
v  -60.2494 -15.2912 -60.2494
v  -57.5367 -29.544 -57.5367
v  -53.6387 -41.7082 -53.6387
v  -49.9793 -49.9793 -49.9793
v  -17.5024 -1.38009e-05 -84.7789
v  1.25651e-08 -1.40895e-05 -86.5667
v  1.01856e-08 -17.5025 -84.7789
v  -17.1477 -17.1477 -83.1005
v  -33.9658 -1.30616e-05 -79.6248
v  -33.3397 -16.4107 -78.1853
v  -48.6478 -1.16686e-05 -71.6044
v  -47.8382 -15.6648 -70.4266
v  9.7885e-08 -33.9658 -79.6248
v  -16.4107 -33.3397 -78.1853
v  -31.9405 -31.9405 -73.8471
v  -45.7913 -30.3666 -66.8941
v  -2.5171e-09 -48.6478 -71.6044
v  -15.6648 -47.8382 -70.4266
v  -30.3666 -45.7913 -66.8941
v  -43.1512 -43.1512 -61.3981
v  -5.99698e-09 -61.2119 -61.2119
v  -15.2912 -60.2494 -60.2493
v  -29.544 -57.5367 -57.5367
v  -41.7082 -53.6387 -53.6387
v  1.01856e-08 17.5024 -84.7789
v  -17.1477 17.1477 -83.1005
v  -8.95795e-08 33.9658 -79.6248
v  -16.4107 33.3396 -78.1853
v  -2.5171e-09 48.6477 -71.6044
v  -15.6648 47.8382 -70.4267
v  -5.99698e-09 61.2119 -61.2119
v  -15.2912 60.2493 -60.2494
v  -33.3397 16.4107 -78.1853
v  -31.9405 31.9405 -73.8471
v  -30.3666 45.7912 -66.8941
v  -29.544 57.5367 -57.5367
v  -47.8382 15.6648 -70.4266
v  -45.7913 30.3666 -66.8941
v  -43.1512 43.1512 -61.3981
v  -41.7082 53.6387 -53.6387
v  17.5024 -1.38009e-05 -84.7789
v  17.1477 17.1477 -83.1005
v  33.9658 -1.28742e-05 -79.6248
v  33.3397 16.4107 -78.1853
v  48.6478 -1.16686e-05 -71.6044
v  47.8382 15.6648 -70.4266
v  61.2119 -9.97935e-06 -61.2119
v  60.2494 15.2912 -60.2494
v  16.4107 33.3396 -78.1853
v  31.9405 31.9405 -73.8471
v  45.7913 30.3666 -66.8941
v  57.5367 29.544 -57.5367
v  15.6648 47.8382 -70.4266
v  30.3666 45.7912 -66.8941
v  43.1512 43.1512 -61.3981
v  53.6387 41.7082 -53.6387
v  15.2912 60.2493 -60.2494
v  29.544 57.5367 -57.5367
v  41.7082 53.6387 -53.6387
v  49.9793 49.9793 -49.9793
v  17.1477 -17.1477 -83.1005
v  16.4107 -33.3397 -78.1853
v  15.6648 -47.8382 -70.4266
v  15.2912 -60.2494 -60.2493
v  33.3397 -16.4107 -78.1853
v  31.9405 -31.9405 -73.8471
v  30.3666 -45.7913 -66.8941
v  29.544 -57.5367 -57.5367
v  47.8382 -15.6648 -70.4266
v  45.7913 -30.3666 -66.8941
v  43.1512 -43.1512 -61.3981
v  41.7082 -53.6387 -53.6387
v  60.2494 -15.2912 -60.2494
v  57.5367 -29.544 -57.5367
v  53.6387 -41.7082 -53.6387
v  49.9793 -49.9793 -49.9793
v  84.7789 -2.84019e-06 -17.5024
v  86.5667 1.3959e-08 1.88561e-08
v  84.7789 -17.5024 2.8668e-06
v  83.1005 -17.1477 -17.1477
v  79.6248 -5.62285e-06 -33.9658
v  78.1853 -16.4107 -33.3397
v  71.6044 -7.92852e-06 -48.6478
v  70.4266 -15.6648 -47.8382
v  79.6248 -33.9658 5.6337e-06
v  78.1853 -33.3397 -16.4107
v  73.8471 -31.9405 -31.9405
v  66.8941 -30.3666 -45.7912
v  71.6044 -48.6478 7.92194e-06
v  70.4266 -47.8382 -15.6648
v  66.8941 -45.7913 -30.3666
v  61.3981 -43.1512 -43.1512
v  61.2119 -61.2119 9.96366e-06
v  60.2494 -60.2494 -15.2912
v  57.5367 -57.5367 -29.544
v  53.6387 -53.6387 -41.7082
v  84.7789 17.5024 -2.83622e-06
v  83.1005 17.1477 -17.1477
v  79.6248 33.9658 -5.62122e-06
v  78.1853 33.3396 -16.4107
v  71.6044 48.6478 -7.92951e-06
v  70.4266 47.8382 -15.6648
v  61.2119 61.2119 -9.9817e-06
v  60.2494 60.2494 -15.2912
v  78.1853 16.4107 -33.3397
v  73.8471 31.9405 -31.9405
v  66.8941 45.7912 -30.3666
v  57.5367 57.5367 -29.544
v  70.4266 15.6648 -47.8382
v  66.8941 30.3666 -45.7913
v  61.3981 43.1512 -43.1512
v  53.6387 53.6387 -41.7082
v  84.7789 2.86283e-06 17.5024
v  83.1005 17.1477 17.1477
v  79.6248 5.63208e-06 33.9658
v  78.1853 16.4107 33.3397
v  71.6044 7.92292e-06 48.6478
v  70.4266 15.6648 47.8382
v  61.2119 9.96601e-06 61.2119
v  60.2494 15.2912 60.2494
v  78.1853 33.3397 16.4107
v  73.8471 31.9405 31.9405
v  66.8941 30.3666 45.7912
v  57.5367 29.544 57.5367
v  70.4266 47.8382 15.6648
v  66.8941 45.7913 30.3666
v  61.3981 43.1512 43.1512
v  53.6387 41.7082 53.6387
v  60.2494 60.2494 15.2912
v  57.5367 57.5367 29.544
v  53.6387 53.6387 41.7082
v  49.9793 49.9793 49.9793
v  83.1005 -17.1477 17.1477
v  78.1853 -33.3396 16.4107
v  70.4266 -47.8382 15.6648
v  60.2494 -60.2494 15.2912
v  78.1853 -16.4107 33.3397
v  73.8471 -31.9405 31.9405
v  66.8941 -45.7912 30.3666
v  57.5367 -57.5367 29.544
v  70.4266 -15.6648 47.8382
v  66.8941 -30.3666 45.7913
v  61.3981 -43.1512 43.1512
v  53.6387 -53.6387 41.7082
v  60.2494 -15.2912 60.2494
v  57.5367 -29.544 57.5367
v  53.6387 -41.7082 53.6387
v  49.9793 -49.9793 49.9793
v  17.5024 1.38235e-05 84.7789
v  1.25651e-08 1.41175e-05 86.5667
v  1.01856e-08 -17.5024 84.7789
v  17.1477 -17.1477 83.1005
v  33.9658 1.28834e-05 79.6248
v  33.3397 -16.4107 78.1853
v  48.6478 1.1663e-05 71.6044
v  47.8382 -15.6648 70.4266
v  -8.95795e-08 -33.9658 79.6248
v  16.4107 -33.3396 78.1853
v  31.9405 -31.9405 73.8471
v  45.7913 -30.3666 66.8941
v  -2.5171e-09 -48.6477 71.6044
v  15.6648 -47.8382 70.4266
v  30.3666 -45.7912 66.8941
v  43.1512 -43.1512 61.3981
v  -5.99698e-09 -61.2119 61.2119
v  15.2912 -60.2493 60.2494
v  29.544 -57.5367 57.5367
v  41.7082 -53.6387 53.6387
v  1.01856e-08 17.5025 84.7789
v  17.1477 17.1477 83.1005
v  9.7885e-08 33.9658 79.6248
v  16.4107 33.3397 78.1853
v  -2.5171e-09 48.6478 71.6044
v  15.6648 47.8382 70.4266
v  -5.99698e-09 61.2119 61.2119
v  15.2912 60.2494 60.2493
v  33.3397 16.4107 78.1853
v  31.9405 31.9405 73.8471
v  30.3666 45.7913 66.8941
v  29.544 57.5367 57.5367
v  47.8382 15.6648 70.4266
v  45.7913 30.3666 66.8941
v  43.1512 43.1512 61.3981
v  41.7082 53.6387 53.6387
v  -17.5024 1.38235e-05 84.7789
v  -17.1477 17.1477 83.1005
v  -33.9658 1.30709e-05 79.6248
v  -33.3397 16.4107 78.1853
v  -48.6478 1.1663e-05 71.6044
v  -47.8382 15.6648 70.4266
v  -16.4107 33.3397 78.1853
v  -31.9405 31.9405 73.8471
v  -45.7913 30.3666 66.8941
v  -15.6648 47.8382 70.4266
v  -30.3666 45.7913 66.8941
v  -43.1512 43.1512 61.3981
v  -15.2912 60.2494 60.2493
v  -29.544 57.5367 57.5367
v  -41.7082 53.6387 53.6387
v  -17.1477 -17.1477 83.1005
v  -16.4107 -33.3396 78.1853
v  -15.6648 -47.8382 70.4267
v  -15.2912 -60.2493 60.2494
v  -33.3397 -16.4107 78.1853
v  -31.9405 -31.9405 73.8471
v  -30.3666 -45.7912 66.8941
v  -29.544 -57.5367 57.5367
v  -47.8382 -15.6648 70.4266
v  -45.7913 -30.3666 66.8941
v  -43.1512 -43.1512 61.3981
v  -41.7082 -53.6387 53.6387
v  1.01856e-08 -84.7789 -17.5024
v  1.25651e-08 -86.5667 1.41224e-05
v  -17.5024 -84.7789 1.38275e-05
v  -17.1477 -83.1005 -17.1477
v  -8.95795e-08 -79.6248 -33.9658
v  -16.4107 -78.1853 -33.3396
v  -2.5171e-09 -71.6044 -48.6477
v  -15.6648 -70.4267 -47.8382
v  -33.9658 -79.6248 1.30725e-05
v  -33.3397 -78.1853 -16.4107
v  -31.9405 -73.8471 -31.9405
v  -30.3666 -66.8941 -45.7912
v  -48.6478 -71.6044 1.1662e-05
v  -47.8382 -70.4266 -15.6648
v  -45.7913 -66.8941 -30.3666
v  -43.1512 -61.3981 -43.1512
v  17.5024 -84.7789 1.38275e-05
v  17.1477 -83.1005 -17.1477
v  33.9658 -79.6248 1.2885e-05
v  33.3397 -78.1853 -16.4107
v  48.6478 -71.6044 1.1662e-05
v  47.8382 -70.4266 -15.6648
v  16.4107 -78.1853 -33.3396
v  31.9405 -73.8471 -31.9405
v  45.7913 -66.8941 -30.3666
v  15.6648 -70.4266 -47.8382
v  30.3666 -66.8941 -45.7912
v  43.1512 -61.3981 -43.1512
v  1.01856e-08 -84.7789 17.5025
v  17.1477 -83.1005 17.1477
v  9.7885e-08 -79.6248 33.9658
v  16.4107 -78.1853 33.3397
v  -2.5171e-09 -71.6044 48.6478
v  15.6648 -70.4266 47.8382
v  33.3397 -78.1853 16.4107
v  31.9405 -73.8471 31.9405
v  30.3666 -66.8941 45.7913
v  47.8382 -70.4266 15.6648
v  45.7913 -66.8941 30.3666
v  43.1512 -61.3981 43.1513
v  -17.1477 -83.1005 17.1477
v  -33.3397 -78.1853 16.4107
v  -47.8382 -70.4266 15.6648
v  -16.4107 -78.1853 33.3397
v  -31.9405 -73.8471 31.9405
v  -45.7913 -66.8941 30.3666
v  -15.6648 -70.4266 47.8382
v  -30.3666 -66.8941 45.7913
v  -43.1512 -61.3981 43.1512
v  1.01856e-08 84.7789 -17.5025
v  1.25651e-08 86.5667 -1.40846e-05
v  17.5024 84.7789 -1.37969e-05
v  17.1477 83.1005 -17.1477
v  9.7885e-08 79.6248 -33.9658
v  16.4107 78.1853 -33.3397
v  -2.5171e-09 71.6044 -48.6478
v  15.6648 70.4266 -47.8382
v  33.9658 79.6248 -1.28726e-05
v  33.3397 78.1853 -16.4107
v  31.9405 73.8471 -31.9405
v  30.3666 66.8941 -45.7913
v  48.6478 71.6044 -1.16696e-05
v  47.8382 70.4266 -15.6648
v  45.7913 66.8941 -30.3666
v  43.1512 61.3981 -43.1513
v  -17.5024 84.7789 -1.37969e-05
v  -17.1477 83.1005 -17.1477
v  -33.9658 79.6248 -1.306e-05
v  -33.3397 78.1853 -16.4107
v  -48.6478 71.6044 -1.16696e-05
v  -47.8382 70.4266 -15.6648
v  -16.4107 78.1853 -33.3397
v  -31.9405 73.8471 -31.9405
v  -45.7913 66.8941 -30.3666
v  -15.6648 70.4266 -47.8382
v  -30.3666 66.8941 -45.7913
v  -43.1512 61.3981 -43.1512
v  1.01856e-08 84.7789 17.5024
v  -17.1477 83.1005 17.1477
v  -8.95795e-08 79.6248 33.9658
v  -16.4107 78.1853 33.3396
v  -2.5171e-09 71.6044 48.6477
v  -15.6648 70.4267 47.8382
v  -33.3397 78.1853 16.4107
v  -31.9405 73.8471 31.9405
v  -30.3666 66.8941 45.7912
v  -47.8382 70.4266 15.6648
v  -45.7913 66.8941 30.3666
v  -43.1512 61.3981 43.1512
v  17.1477 83.1005 17.1477
v  33.3397 78.1853 16.4107
v  47.8382 70.4266 15.6648
v  16.4107 78.1853 33.3396
v  31.9405 73.8471 31.9405
v  45.7913 66.8941 30.3666
v  15.6648 70.4266 47.8382
v  30.3666 66.8941 45.7912
v  43.1512 61.3981 43.1512

# 441 UV coordinates
vt 0.123234 0.407487 0
vt 0.123539 0.375022 0
vt 0.153258 0.375022 0
vt 0.152648 0.408707 0
vt 0.122471 0.439952 0
vt 0.151122 0.442393 0
vt 0.121403 0.472417 0
vt 0.148987 0.476078 0
vt 0.120183 0.504882 0
vt 0.146546 0.509764 0
vt 0.182825 0.375022 0
vt 0.181879 0.41005 0
vt 0.17927 0.445322 0
vt 0.175227 0.481082 0
vt 0.170467 0.517087 0
vt 0.212696 0.375022 0
vt 0.211476 0.411148 0
vt 0.207448 0.448251 0
vt 0.200247 0.487307 0
vt 0.19146 0.527339 0
vt 0.243331 0.375022 0
vt 0.241988 0.411636 0
vt 0.237228 0.449655 0
vt 0.228319 0.49048 0
vt 0.209035 0.541008 0
vt 0.0932101 0.375022 0
vt 0.0930881 0.406754 0
vt 0.0624232 0.375022 0
vt 0.0623927 0.406388 0
vt 0.0313312 0.375022 0
vt 0.0313312 0.406266 0
vt 8.66177e-05 0.375022 0
vt 8.66104e-05 0.406266 0
vt 0.092783 0.438487 0
vt 0.0623164 0.437755 0
vt 0.0313312 0.437511 0
vt 8.66031e-05 0.437511 0
vt 0.0923558 0.47022 0
vt 0.0622096 0.469122 0
vt 0.0313312 0.468755 0
vt 8.65959e-05 0.468755 0
vt 0.0918676 0.501953 0
vt 0.0620876 0.500488 0
vt 0.0313312 0.5 0
vt 8.65888e-05 0.5 0
vt 0.123234 0.342557 0
vt 0.0930881 0.343289 0
vt 0.122471 0.310091 0
vt 0.092783 0.311556 0
vt 0.121404 0.277626 0
vt 0.0923558 0.279823 0
vt 0.120183 0.245161 0
vt 0.0918676 0.24809 0
vt 0.0623927 0.343655 0
vt 0.0623165 0.312288 0
vt 0.0622097 0.280922 0
vt 0.0620876 0.249555 0
vt 0.0313312 0.343777 0
vt 0.0313312 0.312532 0
vt 0.0313312 0.281288 0
vt 0.0313312 0.250043 0
vt 8.66253e-05 0.343777 0
vt 8.66329e-05 0.312532 0
vt 8.66406e-05 0.281288 0
vt 8.66484e-05 0.250043 0
vt 0.152648 0.341336 0
vt 0.181879 0.339994 0
vt 0.211476 0.338895 0
vt 0.241988 0.338407 0
vt 0.151122 0.30765 0
vt 0.17927 0.304721 0
vt 0.207448 0.301792 0
vt 0.237228 0.300389 0
vt 0.148987 0.273965 0
vt 0.175227 0.268961 0
vt 0.200247 0.262736 0
vt 0.228319 0.259563 0
vt 0.146546 0.240279 0
vt 0.170467 0.232956 0
vt 0.19146 0.222704 0
vt 0.209035 0.209035 0
vt 0.342557 0.123234 0
vt 0.375022 0.123539 0
vt 0.375022 0.153258 0
vt 0.341336 0.152648 0
vt 0.310092 0.122471 0
vt 0.307651 0.151122 0
vt 0.277626 0.121403 0
vt 0.273965 0.148987 0
vt 0.245161 0.120183 0
vt 0.240279 0.146546 0
vt 0.375022 0.182825 0
vt 0.339994 0.181879 0
vt 0.304721 0.17927 0
vt 0.268961 0.175227 0
vt 0.232956 0.170467 0
vt 0.375022 0.212696 0
vt 0.338895 0.211476 0
vt 0.301792 0.207448 0
vt 0.262736 0.200247 0
vt 0.222704 0.19146 0
vt 0.375022 0.243331 0
vt 0.338407 0.241988 0
vt 0.300389 0.237228 0
vt 0.259563 0.228319 0
vt 0.375022 0.0932101 0
vt 0.343289 0.0930881 0
vt 0.375022 0.0624232 0
vt 0.343655 0.0623927 0
vt 0.375022 0.0313312 0
vt 0.343777 0.0313312 0
vt 0.375022 8.65879e-05 0
vt 0.343777 8.6588e-05 0
vt 0.311556 0.0927829 0
vt 0.312288 0.0623164 0
vt 0.312533 0.0313312 0
vt 0.312533 8.65882e-05 0
vt 0.279823 0.0923558 0
vt 0.280922 0.0622096 0
vt 0.281288 0.0313312 0
vt 0.281288 8.65885e-05 0
vt 0.248091 0.0918676 0
vt 0.249555 0.0620876 0
vt 0.250043 0.0313312 0
vt 0.250043 8.65888e-05 0
vt 0.407487 0.123234 0
vt 0.406754 0.0930881 0
vt 0.439952 0.122471 0
vt 0.438487 0.0927829 0
vt 0.472417 0.121403 0
vt 0.47022 0.0923558 0
vt 0.504882 0.120183 0
vt 0.501953 0.0918676 0
vt 0.406388 0.0623927 0
vt 0.437755 0.0623164 0
vt 0.469122 0.0622096 0
vt 0.500488 0.0620876 0
vt 0.406266 0.0313312 0
vt 0.437511 0.0313312 0
vt 0.468755 0.0313312 0
vt 0.5 0.0313312 0
vt 0.406266 8.6588e-05 0
vt 0.437511 8.65882e-05 0
vt 0.468755 8.65885e-05 0
vt 0.5 8.65888e-05 0
vt 0.408707 0.152648 0
vt 0.41005 0.181879 0
vt 0.411148 0.211476 0
vt 0.411636 0.241988 0
vt 0.442393 0.151122 0
vt 0.445322 0.17927 0
vt 0.448251 0.207448 0
vt 0.449655 0.237228 0
vt 0.476078 0.148987 0
vt 0.481082 0.175227 0
vt 0.487307 0.200247 0
vt 0.49048 0.228319 0
vt 0.509764 0.146546 0
vt 0.517087 0.170467 0
vt 0.527339 0.19146 0
vt 0.541009 0.209035 0
vt 0.626809 0.342557 0
vt 0.626504 0.375022 0
vt 0.596785 0.375022 0
vt 0.597395 0.341336 0
vt 0.627572 0.310092 0
vt 0.598921 0.307651 0
vt 0.62864 0.277626 0
vt 0.601057 0.273965 0
vt 0.62986 0.245161 0
vt 0.603498 0.240279 0
vt 0.567219 0.375022 0
vt 0.568165 0.339994 0
vt 0.570773 0.304721 0
vt 0.574816 0.268961 0
vt 0.579576 0.232956 0
vt 0.537347 0.375022 0
vt 0.538568 0.338895 0
vt 0.542595 0.301792 0
vt 0.549796 0.262736 0
vt 0.558584 0.222704 0
vt 0.506713 0.375022 0
vt 0.508055 0.338407 0
vt 0.512815 0.300389 0
vt 0.521725 0.259563 0
vt 0.656833 0.375022 0
vt 0.656955 0.343289 0
vt 0.68762 0.375022 0
vt 0.687651 0.343655 0
vt 0.718712 0.375022 0
vt 0.718712 0.343777 0
vt 0.749957 0.375022 0
vt 0.749957 0.343777 0
vt 0.65726 0.311556 0
vt 0.687727 0.312288 0
vt 0.718712 0.312532 0
vt 0.749957 0.312532 0
vt 0.657688 0.279823 0
vt 0.687834 0.280922 0
vt 0.718712 0.281288 0
vt 0.749957 0.281288 0
vt 0.658176 0.248091 0
vt 0.687956 0.249555 0
vt 0.718712 0.250043 0
vt 0.749957 0.250043 0
vt 0.626809 0.407487 0
vt 0.656955 0.406754 0
vt 0.627572 0.439952 0
vt 0.65726 0.438487 0
vt 0.62864 0.472417 0
vt 0.657688 0.47022 0
vt 0.62986 0.504882 0
vt 0.658176 0.501953 0
vt 0.687651 0.406388 0
vt 0.687727 0.437755 0
vt 0.687834 0.469122 0
vt 0.687956 0.500488 0
vt 0.718712 0.406266 0
vt 0.718712 0.437511 0
vt 0.718712 0.468755 0
vt 0.718712 0.5 0
vt 0.749957 0.406266 0
vt 0.749957 0.437511 0
vt 0.749957 0.468755 0
vt 0.749957 0.5 0
vt 0.597395 0.408707 0
vt 0.568165 0.41005 0
vt 0.538568 0.411148 0
vt 0.508055 0.411636 0
vt 0.598921 0.442393 0
vt 0.570773 0.445322 0
vt 0.542595 0.448251 0
vt 0.512815 0.449655 0
vt 0.601057 0.476078 0
vt 0.574816 0.481082 0
vt 0.549796 0.487307 0
vt 0.521725 0.49048 0
vt 0.603498 0.509764 0
vt 0.579576 0.517087 0
vt 0.558584 0.527339 0
vt 0.541009 0.541008 0
vt 0.407487 0.626809 0
vt 0.375022 0.626504 0
vt 0.375022 0.596785 0
vt 0.408707 0.597395 0
vt 0.439952 0.627572 0
vt 0.442393 0.598921 0
vt 0.472417 0.62864 0
vt 0.476078 0.601057 0
vt 0.504882 0.62986 0
vt 0.509764 0.603498 0
vt 0.375022 0.567219 0
vt 0.41005 0.568164 0
vt 0.445322 0.570773 0
vt 0.481082 0.574816 0
vt 0.517087 0.579576 0
vt 0.375022 0.537347 0
vt 0.411148 0.538568 0
vt 0.448251 0.542595 0
vt 0.487307 0.549796 0
vt 0.527339 0.558584 0
vt 0.375022 0.506713 0
vt 0.411636 0.508055 0
vt 0.449655 0.512815 0
vt 0.49048 0.521725 0
vt 0.375022 0.656833 0
vt 0.406754 0.656955 0
vt 0.375022 0.68762 0
vt 0.406388 0.687651 0
vt 0.375022 0.718712 0
vt 0.406266 0.718712 0
vt 0.375022 0.749957 0
vt 0.406266 0.749957 0
vt 0.438487 0.65726 0
vt 0.437755 0.687727 0
vt 0.437511 0.718712 0
vt 0.437511 0.749957 0
vt 0.47022 0.657688 0
vt 0.469122 0.687834 0
vt 0.468755 0.718712 0
vt 0.468755 0.749957 0
vt 0.501953 0.658176 0
vt 0.500488 0.687956 0
vt 0.5 0.718712 0
vt 0.5 0.749957 0
vt 0.342557 0.626809 0
vt 0.343289 0.656955 0
vt 0.310092 0.627572 0
vt 0.311556 0.65726 0
vt 0.277626 0.62864 0
vt 0.279823 0.657688 0
vt 0.245161 0.62986 0
vt 0.248091 0.658176 0
vt 0.343655 0.687651 0
vt 0.312288 0.687727 0
vt 0.280922 0.687834 0
vt 0.249555 0.687956 0
vt 0.343777 0.718712 0
vt 0.312533 0.718712 0
vt 0.281288 0.718712 0
vt 0.250043 0.718712 0
vt 0.343777 0.749957 0
vt 0.312533 0.749957 0
vt 0.281288 0.749957 0
vt 0.250043 0.749957 0
vt 0.341336 0.597395 0
vt 0.339994 0.568164 0
vt 0.338895 0.538568 0
vt 0.338407 0.508055 0
vt 0.307651 0.598921 0
vt 0.304721 0.570773 0
vt 0.301792 0.542595 0
vt 0.300389 0.512815 0
vt 0.273965 0.601057 0
vt 0.268961 0.574816 0
vt 0.262736 0.549796 0
vt 0.259563 0.521725 0
vt 0.240279 0.603498 0
vt 0.232956 0.579576 0
vt 0.222704 0.558584 0
vt 0.375022 0.341336 0
vt 0.375022 0.375022 0
vt 0.341336 0.375022 0
vt 0.340848 0.340848 0
vt 0.375022 0.307956 0
vt 0.339872 0.30704 0
vt 0.375022 0.275185 0
vt 0.338895 0.273965 0
vt 0.307956 0.375022 0
vt 0.30704 0.339871 0
vt 0.304874 0.304874 0
vt 0.302036 0.270181 0
vt 0.275185 0.375022 0
vt 0.273965 0.338895 0
vt 0.270181 0.302036 0
vt 0.263713 0.263713 0
vt 0.408707 0.375022 0
vt 0.409195 0.340848 0
vt 0.442088 0.375022 0
vt 0.443003 0.339871 0
vt 0.474858 0.375022 0
vt 0.476078 0.338895 0
vt 0.410172 0.30704 0
vt 0.445169 0.304874 0
vt 0.479862 0.302036 0
vt 0.411148 0.273965 0
vt 0.448007 0.270181 0
vt 0.486331 0.263713 0
vt 0.375022 0.408707 0
vt 0.409195 0.409195 0
vt 0.375022 0.442088 0
vt 0.410172 0.443003 0
vt 0.375022 0.474858 0
vt 0.411148 0.476078 0
vt 0.443003 0.410172 0
vt 0.445169 0.445169 0
vt 0.448007 0.479862 0
vt 0.476078 0.411148 0
vt 0.479862 0.448007 0
vt 0.486331 0.486331 0
vt 0.340848 0.409195 0
vt 0.30704 0.410172 0
vt 0.273965 0.411148 0
vt 0.339872 0.443003 0
vt 0.304874 0.445169 0
vt 0.270181 0.448007 0
vt 0.338895 0.476078 0
vt 0.302036 0.479862 0
vt 0.263713 0.48633 0
vt 0.874935 0.343777 0
vt 0.874935 0.375022 0
vt 0.843691 0.375022 0
vt 0.84369 0.343777 0
vt 0.874935 0.312532 0
vt 0.84369 0.312532 0
vt 0.874935 0.281288 0
vt 0.84369 0.281288 0
vt 0.874935 0.250043 0
vt 0.84369 0.250043 0
vt 0.812446 0.375022 0
vt 0.812446 0.343777 0
vt 0.812446 0.312532 0
vt 0.812446 0.281288 0
vt 0.812446 0.250043 0
vt 0.781201 0.375022 0
vt 0.781201 0.343777 0
vt 0.781201 0.312532 0
vt 0.781201 0.281288 0
vt 0.781201 0.250043 0
vt 0.90618 0.375022 0
vt 0.90618 0.343777 0
vt 0.937424 0.375022 0
vt 0.937424 0.343777 0
vt 0.968669 0.375022 0
vt 0.968669 0.343777 0
vt 0.999913 0.375022 0
vt 0.999913 0.343777 0
vt 0.90618 0.312533 0
vt 0.937424 0.312533 0
vt 0.968669 0.312533 0
vt 0.999913 0.312533 0
vt 0.90618 0.281288 0
vt 0.937424 0.281288 0
vt 0.968669 0.281288 0
vt 0.999913 0.281288 0
vt 0.90618 0.250043 0
vt 0.937424 0.250043 0
vt 0.968669 0.250043 0
vt 0.999913 0.250043 0
vt 0.874935 0.406266 0
vt 0.90618 0.406266 0
vt 0.874935 0.437511 0
vt 0.90618 0.437511 0
vt 0.874935 0.468755 0
vt 0.90618 0.468755 0
vt 0.874935 0.5 0
vt 0.90618 0.5 0
vt 0.937424 0.406266 0
vt 0.937424 0.437511 0
vt 0.937424 0.468755 0
vt 0.937424 0.5 0
vt 0.968669 0.406266 0
vt 0.968669 0.437511 0
vt 0.968669 0.468755 0
vt 0.968669 0.5 0
vt 0.999913 0.406266 0
vt 0.999913 0.437511 0
vt 0.999913 0.468755 0
vt 0.999913 0.5 0
vt 0.843691 0.406266 0
vt 0.812446 0.406266 0
vt 0.781201 0.406266 0
vt 0.843691 0.437511 0
vt 0.812446 0.437511 0
vt 0.781201 0.437511 0
vt 0.843691 0.468755 0
vt 0.812446 0.468755 0
vt 0.781201 0.468755 0
vt 0.84369 0.5 0
vt 0.812446 0.5 0
vt 0.781201 0.5 0

# 386 vertex normals
vn -0.979867 3.25277e-08 0.199654
vn -1 0 -0
vn -0.979867 -0.199654 3.25277e-08
vn -0.960843 -0.195935 0.195935
vn -0.921225 6.3381e-08 0.38903
vn -0.904865 -0.187663 0.382101
vn -0.828744 9.11749e-08 0.559627
vn -0.815439 -0.178903 0.550503
vn -0.707107 1.15202e-07 0.707107
vn -0.696234 -0.174692 0.696234
vn -0.921225 -0.38903 6.3381e-08
vn -0.904865 -0.382101 0.187663
vn -0.856 -0.365558 0.365558
vn -0.776343 -0.34633 0.526637
vn -0.665832 -0.336654 0.665832
vn -0.828744 -0.559627 9.11749e-08
vn -0.815439 -0.550503 0.178903
vn -0.776343 -0.526637 0.34633
vn -0.716403 -0.493339 0.493339
vn -0.62266 -0.473908 0.62266
vn -0.707107 -0.707107 1.15202e-07
vn -0.696234 -0.696234 0.174692
vn -0.665832 -0.665832 0.336655
vn -0.62266 -0.62266 0.473908
vn -0.57735 -0.57735 0.57735
vn -0.979867 0.199654 -3.25277e-08
vn -0.960843 0.195935 0.195935
vn -0.921225 0.38903 -6.3381e-08
vn -0.904865 0.382101 0.187663
vn -0.828744 0.559627 -9.11749e-08
vn -0.815439 0.550503 0.178903
vn -0.707107 0.707107 -1.15202e-07
vn -0.696234 0.696234 0.174692
vn -0.904865 0.187663 0.382101
vn -0.856 0.365558 0.365558
vn -0.776343 0.526637 0.34633
vn -0.665832 0.665832 0.336654
vn -0.815439 0.178903 0.550503
vn -0.776343 0.34633 0.526637
vn -0.716403 0.493339 0.493339
vn -0.62266 0.62266 0.473908
vn -0.696234 0.174692 0.696234
vn -0.665832 0.336655 0.665832
vn -0.62266 0.473908 0.62266
vn -0.57735 0.57735 0.57735
vn -0.979867 -3.25277e-08 -0.199654
vn -0.960843 0.195935 -0.195935
vn -0.921225 -6.3381e-08 -0.38903
vn -0.904865 0.187663 -0.382101
vn -0.828744 -9.11749e-08 -0.559627
vn -0.815439 0.178903 -0.550503
vn -0.707107 -1.15202e-07 -0.707107
vn -0.696234 0.174692 -0.696234
vn -0.904865 0.382101 -0.187663
vn -0.856 0.365558 -0.365558
vn -0.776343 0.34633 -0.526637
vn -0.665832 0.336654 -0.665832
vn -0.815439 0.550503 -0.178903
vn -0.776343 0.526637 -0.34633
vn -0.716403 0.493339 -0.493339
vn -0.62266 0.473908 -0.62266
vn -0.696234 0.696234 -0.174692
vn -0.665832 0.665832 -0.336655
vn -0.62266 0.62266 -0.473908
vn -0.57735 0.57735 -0.57735
vn -0.960843 -0.195935 -0.195935
vn -0.904865 -0.382101 -0.187663
vn -0.815439 -0.550503 -0.178903
vn -0.696234 -0.696234 -0.174692
vn -0.904865 -0.187663 -0.382101
vn -0.856 -0.365558 -0.365558
vn -0.776343 -0.526637 -0.34633
vn -0.665832 -0.665832 -0.336654
vn -0.815439 -0.178903 -0.550503
vn -0.776343 -0.34633 -0.526637
vn -0.716403 -0.493339 -0.493339
vn -0.62266 -0.62266 -0.473908
vn -0.696234 -0.174692 -0.696234
vn -0.665832 -0.336655 -0.665832
vn -0.62266 -0.473908 -0.62266
vn -0.57735 -0.57735 -0.57735
vn -0.199654 -1.59641e-07 -0.979867
vn 0 -1.62921e-07 -1
vn 0 -0.199654 -0.979866
vn -0.195935 -0.195935 -0.960843
vn -0.38903 -1.50087e-07 -0.921225
vn -0.382101 -0.187663 -0.904865
vn -0.559627 -1.3502e-07 -0.828744
vn -0.550503 -0.178903 -0.815439
vn 0 -0.38903 -0.921225
vn -0.187663 -0.382101 -0.904865
vn -0.365558 -0.365558 -0.855999
vn -0.526637 -0.34633 -0.776343
vn 0 -0.559628 -0.828744
vn -0.178903 -0.550503 -0.815439
vn -0.34633 -0.526637 -0.776343
vn -0.493339 -0.493339 -0.716402
vn 0 -0.707107 -0.707107
vn -0.174692 -0.696234 -0.696234
vn -0.336654 -0.665832 -0.665832
vn -0.473908 -0.62266 -0.62266
vn 0 0.199654 -0.979867
vn -0.195935 0.195935 -0.960843
vn 0 0.389029 -0.921225
vn -0.187663 0.382101 -0.904866
vn 0 0.559627 -0.828744
vn -0.178903 0.550503 -0.815439
vn 0 0.707107 -0.707107
vn -0.174692 0.696234 -0.696234
vn -0.382101 0.187663 -0.904865
vn -0.365558 0.365558 -0.856
vn -0.34633 0.526637 -0.776344
vn -0.336654 0.665832 -0.665832
vn -0.550503 0.178903 -0.815439
vn -0.526637 0.34633 -0.776344
vn -0.493339 0.493339 -0.716403
vn -0.473908 0.62266 -0.62266
vn 0.199654 -1.59641e-07 -0.979867
vn 0.195935 0.195935 -0.960843
vn 0.38903 -1.50087e-07 -0.921225
vn 0.382101 0.187663 -0.904865
vn 0.559627 -1.3502e-07 -0.828744
vn 0.550503 0.178903 -0.815439
vn 0.707107 -1.15202e-07 -0.707107
vn 0.696234 0.174692 -0.696234
vn 0.187663 0.382101 -0.904866
vn 0.365558 0.365558 -0.856
vn 0.526637 0.34633 -0.776344
vn 0.665832 0.336654 -0.665832
vn 0.178903 0.550503 -0.815439
vn 0.34633 0.526637 -0.776344
vn 0.493339 0.493339 -0.716403
vn 0.62266 0.473908 -0.62266
vn 0.174692 0.696234 -0.696234
vn 0.336654 0.665832 -0.665832
vn 0.473908 0.62266 -0.62266
vn 0.57735 0.57735 -0.57735
vn 0.195935 -0.195935 -0.960843
vn 0.187663 -0.382101 -0.904865
vn 0.178903 -0.550503 -0.815439
vn 0.174692 -0.696234 -0.696234
vn 0.382101 -0.187663 -0.904865
vn 0.365558 -0.365558 -0.855999
vn 0.34633 -0.526637 -0.776343
vn 0.336654 -0.665832 -0.665832
vn 0.550503 -0.178903 -0.815439
vn 0.526637 -0.34633 -0.776343
vn 0.493339 -0.493339 -0.716402
vn 0.473908 -0.62266 -0.62266
vn 0.696234 -0.174692 -0.696234
vn 0.665832 -0.336655 -0.665832
vn 0.62266 -0.473908 -0.62266
vn 0.57735 -0.57735 -0.57735
vn 0.979867 -3.25277e-08 -0.199654
vn 1 0 0
vn 0.979867 -0.199654 3.25277e-08
vn 0.960843 -0.195935 -0.195935
vn 0.921225 -6.3381e-08 -0.38903
vn 0.904865 -0.187663 -0.382101
vn 0.828744 -9.11749e-08 -0.559627
vn 0.815439 -0.178903 -0.550503
vn 0.921225 -0.38903 6.3381e-08
vn 0.904865 -0.382101 -0.187663
vn 0.856 -0.365558 -0.365558
vn 0.776343 -0.34633 -0.526637
vn 0.828744 -0.559627 9.11749e-08
vn 0.815439 -0.550503 -0.178903
vn 0.776343 -0.526637 -0.34633
vn 0.716403 -0.493339 -0.493339
vn 0.707107 -0.707107 1.15202e-07
vn 0.696234 -0.696234 -0.174692
vn 0.665832 -0.665832 -0.336654
vn 0.62266 -0.62266 -0.473908
vn 0.979867 0.199654 -3.25277e-08
vn 0.960843 0.195935 -0.195935
vn 0.921225 0.38903 -6.3381e-08
vn 0.904865 0.382101 -0.187663
vn 0.828744 0.559627 -9.11749e-08
vn 0.815439 0.550503 -0.178903
vn 0.707107 0.707107 -1.15202e-07
vn 0.696234 0.696234 -0.174692
vn 0.904865 0.187663 -0.382101
vn 0.856 0.365558 -0.365558
vn 0.776343 0.526637 -0.34633
vn 0.665832 0.665832 -0.336655
vn 0.815439 0.178903 -0.550503
vn 0.776343 0.34633 -0.526637
vn 0.716403 0.493339 -0.493339
vn 0.62266 0.62266 -0.473908
vn 0.979867 3.25277e-08 0.199654
vn 0.960843 0.195935 0.195935
vn 0.921225 6.3381e-08 0.38903
vn 0.904865 0.187663 0.382101
vn 0.828744 9.11749e-08 0.559627
vn 0.815439 0.178903 0.550503
vn 0.707107 1.15202e-07 0.707107
vn 0.696234 0.174692 0.696234
vn 0.904865 0.382101 0.187663
vn 0.856 0.365558 0.365558
vn 0.776343 0.34633 0.526637
vn 0.665832 0.336655 0.665832
vn 0.815439 0.550503 0.178903
vn 0.776343 0.526637 0.34633
vn 0.716403 0.493339 0.493339
vn 0.62266 0.473908 0.62266
vn 0.696234 0.696234 0.174692
vn 0.665832 0.665832 0.336654
vn 0.62266 0.62266 0.473908
vn 0.57735 0.57735 0.57735
vn 0.960843 -0.195935 0.195935
vn 0.904865 -0.382101 0.187663
vn 0.815439 -0.550503 0.178903
vn 0.696234 -0.696234 0.174692
vn 0.904865 -0.187663 0.382101
vn 0.856 -0.365558 0.365558
vn 0.776343 -0.526637 0.34633
vn 0.665832 -0.665832 0.336655
vn 0.815439 -0.178903 0.550503
vn 0.776343 -0.34633 0.526637
vn 0.716403 -0.493339 0.493339
vn 0.62266 -0.62266 0.473908
vn 0.696234 -0.174692 0.696234
vn 0.665832 -0.336654 0.665832
vn 0.62266 -0.473908 0.62266
vn 0.57735 -0.57735 0.57735
vn 0.199654 1.59641e-07 0.979867
vn 0 1.62921e-07 1
vn 0 -0.199654 0.979867
vn 0.195935 -0.195935 0.960843
vn 0.38903 1.50087e-07 0.921225
vn 0.382101 -0.187663 0.904865
vn 0.559627 1.3502e-07 0.828744
vn 0.550503 -0.178903 0.815439
vn 0 -0.389029 0.921225
vn 0.187663 -0.382101 0.904866
vn 0.365558 -0.365558 0.856
vn 0.526637 -0.34633 0.776344
vn 0 -0.559627 0.828744
vn 0.178903 -0.550503 0.815439
vn 0.34633 -0.526637 0.776344
vn 0.493339 -0.493339 0.716403
vn 0 -0.707107 0.707107
vn 0.174692 -0.696234 0.696234
vn 0.336654 -0.665832 0.665832
vn 0.473908 -0.62266 0.62266
vn 0 0.199654 0.979866
vn 0.195935 0.195935 0.960843
vn 0 0.38903 0.921225
vn 0.187663 0.382101 0.904865
vn 0 0.559628 0.828744
vn 0.178903 0.550503 0.815439
vn 0 0.707107 0.707107
vn 0.174692 0.696234 0.696234
vn 0.382101 0.187663 0.904865
vn 0.365558 0.365558 0.855999
vn 0.34633 0.526637 0.776343
vn 0.336654 0.665832 0.665832
vn 0.550503 0.178903 0.815439
vn 0.526637 0.34633 0.776343
vn 0.493339 0.493339 0.716402
vn 0.473908 0.62266 0.62266
vn -0.199654 1.59641e-07 0.979867
vn -0.195935 0.195935 0.960843
vn -0.38903 1.50087e-07 0.921225
vn -0.382101 0.187663 0.904865
vn -0.559627 1.3502e-07 0.828744
vn -0.550503 0.178903 0.815439
vn -0.187663 0.382101 0.904865
vn -0.365558 0.365558 0.855999
vn -0.526637 0.34633 0.776343
vn -0.178903 0.550503 0.815439
vn -0.34633 0.526637 0.776343
vn -0.493339 0.493339 0.716402
vn -0.174692 0.696234 0.696234
vn -0.336654 0.665832 0.665832
vn -0.473908 0.62266 0.62266
vn -0.195935 -0.195935 0.960843
vn -0.187663 -0.382101 0.904866
vn -0.178903 -0.550503 0.815439
vn -0.174692 -0.696234 0.696234
vn -0.382101 -0.187663 0.904865
vn -0.365558 -0.365558 0.856
vn -0.34633 -0.526637 0.776344
vn -0.336654 -0.665832 0.665832
vn -0.550503 -0.178903 0.815439
vn -0.526637 -0.34633 0.776344
vn -0.493339 -0.493339 0.716403
vn -0.473908 -0.62266 0.62266
vn 0 -0.979867 -0.199654
vn 0 -1 1.62921e-07
vn -0.199654 -0.979867 1.59641e-07
vn -0.195935 -0.960843 -0.195935
vn 0 -0.921225 -0.389029
vn -0.187663 -0.904866 -0.382101
vn 0 -0.828744 -0.559627
vn -0.178903 -0.815439 -0.550503
vn -0.38903 -0.921225 1.50087e-07
vn -0.382101 -0.904865 -0.187663
vn -0.365558 -0.856 -0.365558
vn -0.34633 -0.776344 -0.526637
vn -0.559627 -0.828744 1.3502e-07
vn -0.550503 -0.815439 -0.178903
vn -0.526637 -0.776344 -0.34633
vn -0.493339 -0.716403 -0.493339
vn 0.199654 -0.979867 1.59641e-07
vn 0.195935 -0.960843 -0.195935
vn 0.38903 -0.921225 1.50087e-07
vn 0.382101 -0.904865 -0.187663
vn 0.559627 -0.828744 1.3502e-07
vn 0.550503 -0.815439 -0.178903
vn 0.187663 -0.904866 -0.382101
vn 0.365558 -0.856 -0.365558
vn 0.526637 -0.776344 -0.34633
vn 0.178903 -0.815439 -0.550503
vn 0.34633 -0.776344 -0.526637
vn 0.493339 -0.716403 -0.493339
vn 0 -0.979866 0.199654
vn 0.195935 -0.960843 0.195935
vn 0 -0.921225 0.38903
vn 0.187663 -0.904865 0.382101
vn 0 -0.828744 0.559628
vn 0.178903 -0.815439 0.550503
vn 0.382101 -0.904865 0.187663
vn 0.365558 -0.855999 0.365558
vn 0.34633 -0.776343 0.526637
vn 0.550503 -0.815439 0.178903
vn 0.526637 -0.776343 0.34633
vn 0.493339 -0.716402 0.493339
vn -0.195935 -0.960843 0.195935
vn -0.382101 -0.904865 0.187663
vn -0.550503 -0.815439 0.178903
vn -0.187663 -0.904865 0.382101
vn -0.365558 -0.855999 0.365558
vn -0.526637 -0.776343 0.34633
vn -0.178903 -0.815439 0.550503
vn -0.34633 -0.776343 0.526637
vn -0.493339 -0.716402 0.493339
vn 0 0.979866 -0.199654
vn 0 1 -1.62921e-07
vn 0.199654 0.979867 -1.59641e-07
vn 0.195935 0.960843 -0.195935
vn 0 0.921225 -0.38903
vn 0.187663 0.904865 -0.382101
vn 0 0.828744 -0.559628
vn 0.178903 0.815439 -0.550503
vn 0.38903 0.921225 -1.50087e-07
vn 0.382101 0.904865 -0.187663
vn 0.365558 0.855999 -0.365558
vn 0.34633 0.776343 -0.526637
vn 0.559627 0.828744 -1.3502e-07
vn 0.550503 0.815439 -0.178903
vn 0.526637 0.776343 -0.34633
vn 0.493339 0.716402 -0.493339
vn -0.199654 0.979867 -1.59641e-07
vn -0.195935 0.960843 -0.195935
vn -0.38903 0.921225 -1.50087e-07
vn -0.382101 0.904865 -0.187663
vn -0.559627 0.828744 -1.3502e-07
vn -0.550503 0.815439 -0.178903
vn -0.187663 0.904865 -0.382101
vn -0.365558 0.855999 -0.365558
vn -0.526637 0.776343 -0.34633
vn -0.178903 0.815439 -0.550503
vn -0.34633 0.776343 -0.526637
vn -0.493339 0.716402 -0.493339
vn 0 0.979867 0.199654
vn -0.195935 0.960843 0.195935
vn 0 0.921225 0.389029
vn -0.187663 0.904866 0.382101
vn 0 0.828744 0.559627
vn -0.178903 0.815439 0.550503
vn -0.382101 0.904865 0.187663
vn -0.365558 0.856 0.365558
vn -0.34633 0.776344 0.526637
vn -0.550503 0.815439 0.178903
vn -0.526637 0.776344 0.34633
vn -0.493339 0.716403 0.493339
vn 0.195935 0.960843 0.195935
vn 0.382101 0.904865 0.187663
vn 0.550503 0.815439 0.178903
vn 0.187663 0.904866 0.382101
vn 0.365558 0.856 0.365558
vn 0.526637 0.776344 0.34633
vn 0.178903 0.815439 0.550503
vn 0.34633 0.776344 0.526637
vn 0.493339 0.716403 0.493339

# Mesh 'Cube_Cube' with 768 faces
g Cube_Cube
usemtl Bubble_Material
f  1/1/1 2/2/2 3/3/3
f  3/3/3 4/4/4 1/1/1
f  5/5/5 1/1/1 4/4/4
f  4/4/4 6/6/6 5/5/5
f  7/7/7 5/5/5 6/6/6
f  6/6/6 8/8/8 7/7/7
f  9/9/9 7/7/7 8/8/8
f  8/8/8 10/10/10 9/9/9
f  4/4/4 3/3/3 11/11/11
f  11/11/11 12/12/12 4/4/4
f  6/6/6 4/4/4 12/12/12
f  12/12/12 13/13/13 6/6/6
f  8/8/8 6/6/6 13/13/13
f  13/13/13 14/14/14 8/8/8
f  10/10/10 8/8/8 14/14/14
f  14/14/14 15/15/15 10/10/10
f  12/12/12 11/11/11 16/16/16
f  16/16/16 17/17/17 12/12/12
f  13/13/13 12/12/12 17/17/17
f  17/17/17 18/18/18 13/13/13
f  14/14/14 13/13/13 18/18/18
f  18/18/18 19/19/19 14/14/14
f  15/15/15 14/14/14 19/19/19
f  19/19/19 20/20/20 15/15/15
f  17/17/17 16/16/16 21/21/21
f  21/21/21 22/22/22 17/17/17
f  18/18/18 17/17/17 22/22/22
f  22/22/22 23/23/23 18/18/18
f  19/19/19 18/18/18 23/23/23
f  23/23/23 24/24/24 19/19/19
f  20/20/20 19/19/19 24/24/24
f  24/24/24 25/25/25 20/20/20
f  26/26/26 2/2/2 1/1/1
f  1/1/1 27/27/27 26/26/26
f  28/28/28 26/26/26 27/27/27
f  27/27/27 29/29/29 28/28/28
f  30/30/30 28/28/28 29/29/29
f  29/29/29 31/31/31 30/30/30
f  32/32/32 30/30/30 31/31/31
f  31/31/31 33/33/33 32/32/32
f  27/27/27 1/1/1 5/5/5
f  5/5/5 34/34/34 27/27/27
f  29/29/29 27/27/27 34/34/34
f  34/34/34 35/35/35 29/29/29
f  31/31/31 29/29/29 35/35/35
f  35/35/35 36/36/36 31/31/31
f  33/33/33 31/31/31 36/36/36
f  36/36/36 37/37/37 33/33/33
f  34/34/34 5/5/5 7/7/7
f  7/7/7 38/38/38 34/34/34
f  35/35/35 34/34/34 38/38/38
f  38/38/38 39/39/39 35/35/35
f  36/36/36 35/35/35 39/39/39
f  39/39/39 40/40/40 36/36/36
f  37/37/37 36/36/36 40/40/40
f  40/40/40 41/41/41 37/37/37
f  38/38/38 7/7/7 9/9/9
f  9/9/9 42/42/42 38/38/38
f  39/39/39 38/38/38 42/42/42
f  42/42/42 43/43/43 39/39/39
f  40/40/40 39/39/39 43/43/43
f  43/43/43 44/44/44 40/40/40
f  41/41/41 40/40/40 44/44/44
f  44/44/44 45/45/45 41/41/41
f  46/46/46 2/2/2 26/26/26
f  26/26/26 47/47/47 46/46/46
f  48/48/48 46/46/46 47/47/47
f  47/47/47 49/49/49 48/48/48
f  50/50/50 48/48/48 49/49/49
f  49/49/49 51/51/51 50/50/50
f  52/52/52 50/50/50 51/51/51
f  51/51/51 53/53/53 52/52/52
f  47/47/47 26/26/26 28/28/28
f  28/28/28 54/54/54 47/47/47
f  49/49/49 47/47/47 54/54/54
f  54/54/54 55/55/55 49/49/49
f  51/51/51 49/49/49 55/55/55
f  55/55/55 56/56/56 51/51/51
f  53/53/53 51/51/51 56/56/56
f  56/56/56 57/57/57 53/53/53
f  54/54/54 28/28/28 30/30/30
f  30/30/30 58/58/58 54/54/54
f  55/55/55 54/54/54 58/58/58
f  58/58/58 59/59/59 55/55/55
f  56/56/56 55/55/55 59/59/59
f  59/59/59 60/60/60 56/56/56
f  57/57/57 56/56/56 60/60/60
f  60/60/60 61/61/61 57/57/57
f  58/58/58 30/30/30 32/32/32
f  32/32/32 62/62/62 58/58/58
f  59/59/59 58/58/58 62/62/62
f  62/62/62 63/63/63 59/59/59
f  60/60/60 59/59/59 63/63/63
f  63/63/63 64/64/64 60/60/60
f  61/61/61 60/60/60 64/64/64
f  64/64/64 65/65/65 61/61/61
f  3/3/3 2/2/2 46/46/46
f  46/46/46 66/66/66 3/3/3
f  11/11/11 3/3/3 66/66/66
f  66/66/66 67/67/67 11/11/11
f  16/16/16 11/11/11 67/67/67
f  67/67/67 68/68/68 16/16/16
f  21/21/21 16/16/16 68/68/68
f  68/68/68 69/69/69 21/21/21
f  66/66/66 46/46/46 48/48/48
f  48/48/48 70/70/70 66/66/66
f  67/67/67 66/66/66 70/70/70
f  70/70/70 71/71/71 67/67/67
f  68/68/68 67/67/67 71/71/71
f  71/71/71 72/72/72 68/68/68
f  69/69/69 68/68/68 72/72/72
f  72/72/72 73/73/73 69/69/69
f  70/70/70 48/48/48 50/50/50
f  50/50/50 74/74/74 70/70/70
f  71/71/71 70/70/70 74/74/74
f  74/74/74 75/75/75 71/71/71
f  72/72/72 71/71/71 75/75/75
f  75/75/75 76/76/76 72/72/72
f  73/73/73 72/72/72 76/76/76
f  76/76/76 77/77/77 73/73/73
f  74/74/74 50/50/50 52/52/52
f  52/52/52 78/78/78 74/74/74
f  75/75/75 74/74/74 78/78/78
f  78/78/78 79/79/79 75/75/75
f  76/76/76 75/75/75 79/79/79
f  79/79/79 80/80/80 76/76/76
f  77/77/77 76/76/76 80/80/80
f  80/80/80 81/81/81 77/77/77
f  82/82/82 83/83/83 84/84/84
f  84/84/84 85/85/85 82/82/82
f  86/86/86 82/82/82 85/85/85
f  85/85/85 87/87/87 86/86/86
f  88/88/88 86/86/86 87/87/87
f  87/87/87 89/89/89 88/88/88
f  52/90/52 88/88/88 89/89/89
f  89/89/89 78/91/78 52/90/52
f  85/85/85 84/84/84 90/92/90
f  90/92/90 91/93/91 85/85/85
f  87/87/87 85/85/85 91/93/91
f  91/93/91 92/94/92 87/87/87
f  89/89/89 87/87/87 92/94/92
f  92/94/92 93/95/93 89/89/89
f  78/91/78 89/89/89 93/95/93
f  93/95/93 79/96/79 78/91/78
f  91/93/91 90/92/90 94/97/94
f  94/97/94 95/98/95 91/93/91
f  92/94/92 91/93/91 95/98/95
f  95/98/95 96/99/96 92/94/92
f  93/95/93 92/94/92 96/99/96
f  96/99/96 97/100/97 93/95/93
f  79/96/79 93/95/93 97/100/97
f  97/100/97 80/101/80 79/96/79
f  95/98/95 94/97/94 98/102/98
f  98/102/98 99/103/99 95/98/95
f  96/99/96 95/98/95 99/103/99
f  99/103/99 100/104/100 96/99/96
f  97/100/97 96/99/96 100/104/100
f  100/104/100 101/105/101 97/100/97
f  80/101/80 97/100/97 101/105/101
f  101/105/101 81/81/81 80/101/80
f  102/106/102 83/83/83 82/82/82
f  82/82/82 103/107/103 102/106/102
f  104/108/104 102/106/102 103/107/103
f  103/107/103 105/109/105 104/108/104
f  106/110/106 104/108/104 105/109/105
f  105/109/105 107/111/107 106/110/106
f  108/112/108 106/110/106 107/111/107
f  107/111/107 109/113/109 108/112/108
f  103/107/103 82/82/82 86/86/86
f  86/86/86 110/114/110 103/107/103
f  105/109/105 103/107/103 110/114/110
f  110/114/110 111/115/111 105/109/105
f  107/111/107 105/109/105 111/115/111
f  111/115/111 112/116/112 107/111/107
f  109/113/109 107/111/107 112/116/112
f  112/116/112 113/117/113 109/113/109
f  110/114/110 86/86/86 88/88/88
f  88/88/88 114/118/114 110/114/110
f  111/115/111 110/114/110 114/118/114
f  114/118/114 115/119/115 111/115/111
f  112/116/112 111/115/111 115/119/115
f  115/119/115 116/120/116 112/116/112
f  113/117/113 112/116/112 116/120/116
f  116/120/116 117/121/117 113/117/113
f  114/118/114 88/88/88 52/90/52
f  52/90/52 53/122/53 114/118/114
f  115/119/115 114/118/114 53/122/53
f  53/122/53 57/123/57 115/119/115
f  116/120/116 115/119/115 57/123/57
f  57/123/57 61/124/61 116/120/116
f  117/121/117 116/120/116 61/124/61
f  61/124/61 65/125/65 117/121/117
f  118/126/118 83/83/83 102/106/102
f  102/106/102 119/127/119 118/126/118
f  120/128/120 118/126/118 119/127/119
f  119/127/119 121/129/121 120/128/120
f  122/130/122 120/128/120 121/129/121
f  121/129/121 123/131/123 122/130/122
f  124/132/124 122/130/122 123/131/123
f  123/131/123 125/133/125 124/132/124
f  119/127/119 102/106/102 104/108/104
f  104/108/104 126/134/126 119/127/119
f  121/129/121 119/127/119 126/134/126
f  126/134/126 127/135/127 121/129/121
f  123/131/123 121/129/121 127/135/127
f  127/135/127 128/136/128 123/131/123
f  125/133/125 123/131/123 128/136/128
f  128/136/128 129/137/129 125/133/125
f  126/134/126 104/108/104 106/110/106
f  106/110/106 130/138/130 126/134/126
f  127/135/127 126/134/126 130/138/130
f  130/138/130 131/139/131 127/135/127
f  128/136/128 127/135/127 131/139/131
f  131/139/131 132/140/132 128/136/128
f  129/137/129 128/136/128 132/140/132
f  132/140/132 133/141/133 129/137/129
f  130/138/130 106/110/106 108/112/108
f  108/112/108 134/142/134 130/138/130
f  131/139/131 130/138/130 134/142/134
f  134/142/134 135/143/135 131/139/131
f  132/140/132 131/139/131 135/143/135
f  135/143/135 136/144/136 132/140/132
f  133/141/133 132/140/132 136/144/136
f  136/144/136 137/145/137 133/141/133
f  84/84/84 83/83/83 118/126/118
f  118/126/118 138/146/138 84/84/84
f  90/92/90 84/84/84 138/146/138
f  138/146/138 139/147/139 90/92/90
f  94/97/94 90/92/90 139/147/139
f  139/147/139 140/148/140 94/97/94
f  98/102/98 94/97/94 140/148/140
f  140/148/140 141/149/141 98/102/98
f  138/146/138 118/126/118 120/128/120
f  120/128/120 142/150/142 138/146/138
f  139/147/139 138/146/138 142/150/142
f  142/150/142 143/151/143 139/147/139
f  140/148/140 139/147/139 143/151/143
f  143/151/143 144/152/144 140/148/140
f  141/149/141 140/148/140 144/152/144
f  144/152/144 145/153/145 141/149/141
f  142/150/142 120/128/120 122/130/122
f  122/130/122 146/154/146 142/150/142
f  143/151/143 142/150/142 146/154/146
f  146/154/146 147/155/147 143/151/143
f  144/152/144 143/151/143 147/155/147
f  147/155/147 148/156/148 144/152/144
f  145/153/145 144/152/144 148/156/148
f  148/156/148 149/157/149 145/153/145
f  146/154/146 122/130/122 124/132/124
f  124/132/124 150/158/150 146/154/146
f  147/155/147 146/154/146 150/158/150
f  150/158/150 151/159/151 147/155/147
f  148/156/148 147/155/147 151/159/151
f  151/159/151 152/160/152 148/156/148
f  149/157/149 148/156/148 152/160/152
f  152/160/152 153/161/153 149/157/149
f  154/162/154 155/163/155 156/164/156
f  156/164/156 157/165/157 154/162/154
f  158/166/158 154/162/154 157/165/157
f  157/165/157 159/167/159 158/166/158
f  160/168/160 158/166/158 159/167/159
f  159/167/159 161/169/161 160/168/160
f  124/170/124 160/168/160 161/169/161
f  161/169/161 150/171/150 124/170/124
f  157/165/157 156/164/156 162/172/162
f  162/172/162 163/173/163 157/165/157
f  159/167/159 157/165/157 163/173/163
f  163/173/163 164/174/164 159/167/159
f  161/169/161 159/167/159 164/174/164
f  164/174/164 165/175/165 161/169/161
f  150/171/150 161/169/161 165/175/165
f  165/175/165 151/176/151 150/171/150
f  163/173/163 162/172/162 166/177/166
f  166/177/166 167/178/167 163/173/163
f  164/174/164 163/173/163 167/178/167
f  167/178/167 168/179/168 164/174/164
f  165/175/165 164/174/164 168/179/168
f  168/179/168 169/180/169 165/175/165
f  151/176/151 165/175/165 169/180/169
f  169/180/169 152/181/152 151/176/151
f  167/178/167 166/177/166 170/182/170
f  170/182/170 171/183/171 167/178/167
f  168/179/168 167/178/167 171/183/171
f  171/183/171 172/184/172 168/179/168
f  169/180/169 168/179/168 172/184/172
f  172/184/172 173/185/173 169/180/169
f  152/181/152 169/180/169 173/185/173
f  173/185/173 153/161/153 152/181/152
f  174/186/174 155/163/155 154/162/154
f  154/162/154 175/187/175 174/186/174
f  176/188/176 174/186/174 175/187/175
f  175/187/175 177/189/177 176/188/176
f  178/190/178 176/188/176 177/189/177
f  177/189/177 179/191/179 178/190/178
f  180/192/180 178/190/178 179/191/179
f  179/191/179 181/193/181 180/192/180
f  175/187/175 154/162/154 158/166/158
f  158/166/158 182/194/182 175/187/175
f  177/189/177 175/187/175 182/194/182
f  182/194/182 183/195/183 177/189/177
f  179/191/179 177/189/177 183/195/183
f  183/195/183 184/196/184 179/191/179
f  181/193/181 179/191/179 184/196/184
f  184/196/184 185/197/185 181/193/181
f  182/194/182 158/166/158 160/168/160
f  160/168/160 186/198/186 182/194/182
f  183/195/183 182/194/182 186/198/186
f  186/198/186 187/199/187 183/195/183
f  184/196/184 183/195/183 187/199/187
f  187/199/187 188/200/188 184/196/184
f  185/197/185 184/196/184 188/200/188
f  188/200/188 189/201/189 185/197/185
f  186/198/186 160/168/160 124/170/124
f  124/170/124 125/202/125 186/198/186
f  187/199/187 186/198/186 125/202/125
f  125/202/125 129/203/129 187/199/187
f  188/200/188 187/199/187 129/203/129
f  129/203/129 133/204/133 188/200/188
f  189/201/189 188/200/188 133/204/133
f  133/204/133 137/205/137 189/201/189
f  190/206/190 155/163/155 174/186/174
f  174/186/174 191/207/191 190/206/190
f  192/208/192 190/206/190 191/207/191
f  191/207/191 193/209/193 192/208/192
f  194/210/194 192/208/192 193/209/193
f  193/209/193 195/211/195 194/210/194
f  196/212/196 194/210/194 195/211/195
f  195/211/195 197/213/197 196/212/196
f  191/207/191 174/186/174 176/188/176
f  176/188/176 198/214/198 191/207/191
f  193/209/193 191/207/191 198/214/198
f  198/214/198 199/215/199 193/209/193
f  195/211/195 193/209/193 199/215/199
f  199/215/199 200/216/200 195/211/195
f  197/213/197 195/211/195 200/216/200
f  200/216/200 201/217/201 197/213/197
f  198/214/198 176/188/176 178/190/178
f  178/190/178 202/218/202 198/214/198
f  199/215/199 198/214/198 202/218/202
f  202/218/202 203/219/203 199/215/199
f  200/216/200 199/215/199 203/219/203
f  203/219/203 204/220/204 200/216/200
f  201/217/201 200/216/200 204/220/204
f  204/220/204 205/221/205 201/217/201
f  202/218/202 178/190/178 180/192/180
f  180/192/180 206/222/206 202/218/202
f  203/219/203 202/218/202 206/222/206
f  206/222/206 207/223/207 203/219/203
f  204/220/204 203/219/203 207/223/207
f  207/223/207 208/224/208 204/220/204
f  205/221/205 204/220/204 208/224/208
f  208/224/208 209/225/209 205/221/205
f  156/164/156 155/163/155 190/206/190
f  190/206/190 210/226/210 156/164/156
f  162/172/162 156/164/156 210/226/210
f  210/226/210 211/227/211 162/172/162
f  166/177/166 162/172/162 211/227/211
f  211/227/211 212/228/212 166/177/166
f  170/182/170 166/177/166 212/228/212
f  212/228/212 213/229/213 170/182/170
f  210/226/210 190/206/190 192/208/192
f  192/208/192 214/230/214 210/226/210
f  211/227/211 210/226/210 214/230/214
f  214/230/214 215/231/215 211/227/211
f  212/228/212 211/227/211 215/231/215
f  215/231/215 216/232/216 212/228/212
f  213/229/213 212/228/212 216/232/216
f  216/232/216 217/233/217 213/229/213
f  214/230/214 192/208/192 194/210/194
f  194/210/194 218/234/218 214/230/214
f  215/231/215 214/230/214 218/234/218
f  218/234/218 219/235/219 215/231/215
f  216/232/216 215/231/215 219/235/219
f  219/235/219 220/236/220 216/232/216
f  217/233/217 216/232/216 220/236/220
f  220/236/220 221/237/221 217/233/217
f  218/234/218 194/210/194 196/212/196
f  196/212/196 222/238/222 218/234/218
f  219/235/219 218/234/218 222/238/222
f  222/238/222 223/239/223 219/235/219
f  220/236/220 219/235/219 223/239/223
f  223/239/223 224/240/224 220/236/220
f  221/237/221 220/236/220 224/240/224
f  224/240/224 225/241/225 221/237/221
f  226/242/226 227/243/227 228/244/228
f  228/244/228 229/245/229 226/242/226
f  230/246/230 226/242/226 229/245/229
f  229/245/229 231/247/231 230/246/230
f  232/248/232 230/246/230 231/247/231
f  231/247/231 233/249/233 232/248/232
f  196/250/196 232/248/232 233/249/233
f  233/249/233 222/251/222 196/250/196
f  229/245/229 228/244/228 234/252/234
f  234/252/234 235/253/235 229/245/229
f  231/247/231 229/245/229 235/253/235
f  235/253/235 236/254/236 231/247/231
f  233/249/233 231/247/231 236/254/236
f  236/254/236 237/255/237 233/249/233
f  222/251/222 233/249/233 237/255/237
f  237/255/237 223/256/223 222/251/222
f  235/253/235 234/252/234 238/257/238
f  238/257/238 239/258/239 235/253/235
f  236/254/236 235/253/235 239/258/239
f  239/258/239 240/259/240 236/254/236
f  237/255/237 236/254/236 240/259/240
f  240/259/240 241/260/241 237/255/237
f  223/256/223 237/255/237 241/260/241
f  241/260/241 224/261/224 223/256/223
f  239/258/239 238/257/238 242/262/242
f  242/262/242 243/263/243 239/258/239
f  240/259/240 239/258/239 243/263/243
f  243/263/243 244/264/244 240/259/240
f  241/260/241 240/259/240 244/264/244
f  244/264/244 245/265/245 241/260/241
f  224/261/224 241/260/241 245/265/245
f  245/265/245 225/241/225 224/261/224
f  246/266/246 227/243/227 226/242/226
f  226/242/226 247/267/247 246/266/246
f  248/268/248 246/266/246 247/267/247
f  247/267/247 249/269/249 248/268/248
f  250/270/250 248/268/248 249/269/249
f  249/269/249 251/271/251 250/270/250
f  252/272/252 250/270/250 251/271/251
f  251/271/251 253/273/253 252/272/252
f  247/267/247 226/242/226 230/246/230
f  230/246/230 254/274/254 247/267/247
f  249/269/249 247/267/247 254/274/254
f  254/274/254 255/275/255 249/269/249
f  251/271/251 249/269/249 255/275/255
f  255/275/255 256/276/256 251/271/251
f  253/273/253 251/271/251 256/276/256
f  256/276/256 257/277/257 253/273/253
f  254/274/254 230/246/230 232/248/232
f  232/248/232 258/278/258 254/274/254
f  255/275/255 254/274/254 258/278/258
f  258/278/258 259/279/259 255/275/255
f  256/276/256 255/275/255 259/279/259
f  259/279/259 260/280/260 256/276/256
f  257/277/257 256/276/256 260/280/260
f  260/280/260 261/281/261 257/277/257
f  258/278/258 232/248/232 196/250/196
f  196/250/196 197/282/197 258/278/258
f  259/279/259 258/278/258 197/282/197
f  197/282/197 201/283/201 259/279/259
f  260/280/260 259/279/259 201/283/201
f  201/283/201 205/284/205 260/280/260
f  261/281/261 260/280/260 205/284/205
f  205/284/205 209/285/209 261/281/261
f  262/286/262 227/243/227 246/266/246
f  246/266/246 263/287/263 262/286/262
f  264/288/264 262/286/262 263/287/263
f  263/287/263 265/289/265 264/288/264
f  266/290/266 264/288/264 265/289/265
f  265/289/265 267/291/267 266/290/266
f  9/292/9 266/290/266 267/291/267
f  267/291/267 42/293/42 9/292/9
f  263/287/263 246/266/246 248/268/248
f  248/268/248 268/294/268 263/287/263
f  265/289/265 263/287/263 268/294/268
f  268/294/268 269/295/269 265/289/265
f  267/291/267 265/289/265 269/295/269
f  269/295/269 270/296/270 267/291/267
f  42/293/42 267/291/267 270/296/270
f  270/296/270 43/297/43 42/293/42
f  268/294/268 248/268/248 250/270/250
f  250/270/250 271/298/271 268/294/268
f  269/295/269 268/294/268 271/298/271
f  271/298/271 272/299/272 269/295/269
f  270/296/270 269/295/269 272/299/272
f  272/299/272 273/300/273 270/296/270
f  43/297/43 270/296/270 273/300/273
f  273/300/273 44/301/44 43/297/43
f  271/298/271 250/270/250 252/272/252
f  252/272/252 274/302/274 271/298/271
f  272/299/272 271/298/271 274/302/274
f  274/302/274 275/303/275 272/299/272
f  273/300/273 272/299/272 275/303/275
f  275/303/275 276/304/276 273/300/273
f  44/301/44 273/300/273 276/304/276
f  276/304/276 45/305/45 44/301/44
f  228/244/228 227/243/227 262/286/262
f  262/286/262 277/306/277 228/244/228
f  234/252/234 228/244/228 277/306/277
f  277/306/277 278/307/278 234/252/234
f  238/257/238 234/252/234 278/307/278
f  278/307/278 279/308/279 238/257/238
f  242/262/242 238/257/238 279/308/279
f  279/308/279 280/309/280 242/262/242
f  277/306/277 262/286/262 264/288/264
f  264/288/264 281/310/281 277/306/277
f  278/307/278 277/306/277 281/310/281
f  281/310/281 282/311/282 278/307/278
f  279/308/279 278/307/278 282/311/282
f  282/311/282 283/312/283 279/308/279
f  280/309/280 279/308/279 283/312/283
f  283/312/283 284/313/284 280/309/280
f  281/310/281 264/288/264 266/290/266
f  266/290/266 285/314/285 281/310/281
f  282/311/282 281/310/281 285/314/285
f  285/314/285 286/315/286 282/311/282
f  283/312/283 282/311/282 286/315/286
f  286/315/286 287/316/287 283/312/283
f  284/313/284 283/312/283 287/316/287
f  287/316/287 288/317/288 284/313/284
f  285/314/285 266/290/266 9/292/9
f  9/292/9 10/318/10 285/314/285
f  286/315/286 285/314/285 10/318/10
f  10/318/10 15/319/15 286/315/286
f  287/316/287 286/315/286 15/319/15
f  15/319/15 20/320/20 287/316/287
f  288/317/288 287/316/287 20/320/20
f  20/320/20 25/25/25 288/317/288
f  289/321/289 290/322/290 291/323/291
f  291/323/291 292/324/292 289/321/289
f  293/325/293 289/321/289 292/324/292
f  292/324/292 294/326/294 293/325/293
f  295/327/295 293/325/293 294/326/294
f  294/326/294 296/328/296 295/327/295
f  98/102/98 295/327/295 296/328/296
f  296/328/296 99/103/99 98/102/98
f  292/324/292 291/323/291 297/329/297
f  297/329/297 298/330/298 292/324/292
f  294/326/294 292/324/292 298/330/298
f  298/330/298 299/331/299 294/326/294
f  296/328/296 294/326/294 299/331/299
f  299/331/299 300/332/300 296/328/296
f  99/103/99 296/328/296 300/332/300
f  300/332/300 100/104/100 99/103/99
f  298/330/298 297/329/297 301/333/301
f  301/333/301 302/334/302 298/330/298
f  299/331/299 298/330/298 302/334/302
f  302/334/302 303/335/303 299/331/299
f  300/332/300 299/331/299 303/335/303
f  303/335/303 304/336/304 300/332/300
f  100/104/100 300/332/300 304/336/304
f  304/336/304 101/105/101 100/104/100
f  302/334/302 301/333/301 21/21/21
f  21/21/21 69/69/69 302/334/302
f  303/335/303 302/334/302 69/69/69
f  69/69/69 73/73/73 303/335/303
f  304/336/304 303/335/303 73/73/73
f  73/73/73 77/77/77 304/336/304
f  101/105/101 304/336/304 77/77/77
f  77/77/77 81/81/81 101/105/101
f  305/337/305 290/322/290 289/321/289
f  289/321/289 306/338/306 305/337/305
f  307/339/307 305/337/305 306/338/306
f  306/338/306 308/340/308 307/339/307
f  309/341/309 307/339/307 308/340/308
f  308/340/308 310/342/310 309/341/309
f  170/182/170 309/341/309 310/342/310
f  310/342/310 171/183/171 170/182/170
f  306/338/306 289/321/289 293/325/293
f  293/325/293 311/343/311 306/338/306
f  308/340/308 306/338/306 311/343/311
f  311/343/311 312/344/312 308/340/308
f  310/342/310 308/340/308 312/344/312
f  312/344/312 313/345/313 310/342/310
f  171/183/171 310/342/310 313/345/313
f  313/345/313 172/184/172 171/183/171
f  311/343/311 293/325/293 295/327/295
f  295/327/295 314/346/314 311/343/311
f  312/344/312 311/343/311 314/346/314
f  314/346/314 315/347/315 312/344/312
f  313/345/313 312/344/312 315/347/315
f  315/347/315 316/348/316 313/345/313
f  172/184/172 313/345/313 316/348/316
f  316/348/316 173/185/173 172/184/172
f  314/346/314 295/327/295 98/102/98
f  98/102/98 141/149/141 314/346/314
f  315/347/315 314/346/314 141/149/141
f  141/149/141 145/153/145 315/347/315
f  316/348/316 315/347/315 145/153/145
f  145/153/145 149/157/149 316/348/316
f  173/185/173 316/348/316 149/157/149
f  149/157/149 153/161/153 173/185/173
f  317/349/317 290/322/290 305/337/305
f  305/337/305 318/350/318 317/349/317
f  319/351/319 317/349/317 318/350/318
f  318/350/318 320/352/320 319/351/319
f  321/353/321 319/351/319 320/352/320
f  320/352/320 322/354/322 321/353/321
f  242/262/242 321/353/321 322/354/322
f  322/354/322 243/263/243 242/262/242
f  318/350/318 305/337/305 307/339/307
f  307/339/307 323/355/323 318/350/318
f  320/352/320 318/350/318 323/355/323
f  323/355/323 324/356/324 320/352/320
f  322/354/322 320/352/320 324/356/324
f  324/356/324 325/357/325 322/354/322
f  243/263/243 322/354/322 325/357/325
f  325/357/325 244/264/244 243/263/243
f  323/355/323 307/339/307 309/341/309
f  309/341/309 326/358/326 323/355/323
f  324/356/324 323/355/323 326/358/326
f  326/358/326 327/359/327 324/356/324
f  325/357/325 324/356/324 327/359/327
f  327/359/327 328/360/328 325/357/325
f  244/264/244 325/357/325 328/360/328
f  328/360/328 245/265/245 244/264/244
f  326/358/326 309/341/309 170/182/170
f  170/182/170 213/229/213 326/358/326
f  327/359/327 326/358/326 213/229/213
f  213/229/213 217/233/217 327/359/327
f  328/360/328 327/359/327 217/233/217
f  217/233/217 221/237/221 328/360/328
f  245/265/245 328/360/328 221/237/221
f  221/237/221 225/241/225 245/265/245
f  291/323/291 290/322/290 317/349/317
f  317/349/317 329/361/329 291/323/291
f  297/329/297 291/323/291 329/361/329
f  329/361/329 330/362/330 297/329/297
f  301/333/301 297/329/297 330/362/330
f  330/362/330 331/363/331 301/333/301
f  21/21/21 301/333/301 331/363/331
f  331/363/331 22/22/22 21/21/21
f  329/361/329 317/349/317 319/351/319
f  319/351/319 332/364/332 329/361/329
f  330/362/330 329/361/329 332/364/332
f  332/364/332 333/365/333 330/362/330
f  331/363/331 330/362/330 333/365/333
f  333/365/333 334/366/334 331/363/331
f  22/22/22 331/363/331 334/366/334
f  334/366/334 23/23/23 22/22/22
f  332/364/332 319/351/319 321/353/321
f  321/353/321 335/367/335 332/364/332
f  333/365/333 332/364/332 335/367/335
f  335/367/335 336/368/336 333/365/333
f  334/366/334 333/365/333 336/368/336
f  336/368/336 337/369/337 334/366/334
f  23/23/23 334/366/334 337/369/337
f  337/369/337 24/24/24 23/23/23
f  335/367/335 321/353/321 242/262/242
f  242/262/242 280/309/280 335/367/335
f  336/368/336 335/367/335 280/309/280
f  280/309/280 284/313/284 336/368/336
f  337/369/337 336/368/336 284/313/284
f  284/313/284 288/317/288 337/369/337
f  24/24/24 337/369/337 288/317/288
f  288/317/288 25/25/25 24/24/24
f  338/370/338 339/371/339 340/372/340
f  340/372/340 341/373/341 338/370/338
f  342/374/342 338/370/338 341/373/341
f  341/373/341 343/375/343 342/374/342
f  344/376/344 342/374/342 343/375/343
f  343/375/343 345/377/345 344/376/344
f  108/378/108 344/376/344 345/377/345
f  345/377/345 134/379/134 108/378/108
f  341/373/341 340/372/340 346/380/346
f  346/380/346 347/381/347 341/373/341
f  343/375/343 341/373/341 347/381/347
f  347/381/347 348/382/348 343/375/343
f  345/377/345 343/375/343 348/382/348
f  348/382/348 349/383/349 345/377/345
f  134/379/134 345/377/345 349/383/349
f  349/383/349 135/384/135 134/379/134
f  347/381/347 346/380/346 350/385/350
f  350/385/350 351/386/351 347/381/347
f  348/382/348 347/381/347 351/386/351
f  351/386/351 352/387/352 348/382/348
f  349/383/349 348/382/348 352/387/352
f  352/387/352 353/388/353 349/383/349
f  135/384/135 349/383/349 353/388/353
f  353/388/353 136/389/136 135/384/135
f  351/386/351 350/385/350 180/192/180
f  180/192/180 181/193/181 351/386/351
f  352/387/352 351/386/351 181/193/181
f  181/193/181 185/197/185 352/387/352
f  353/388/353 352/387/352 185/197/185
f  185/197/185 189/201/189 353/388/353
f  136/389/136 353/388/353 189/201/189
f  189/201/189 137/205/137 136/389/136
f  354/390/354 339/371/339 338/370/338
f  338/370/338 355/391/355 354/390/354
f  356/392/356 354/390/354 355/391/355
f  355/391/355 357/393/357 356/392/356
f  358/394/358 356/392/356 357/393/357
f  357/393/357 359/395/359 358/394/358
f  32/396/32 358/394/358 359/395/359
f  359/395/359 62/397/62 32/396/32
f  355/391/355 338/370/338 342/374/342
f  342/374/342 360/398/360 355/391/355
f  357/393/357 355/391/355 360/398/360
f  360/398/360 361/399/361 357/393/357
f  359/395/359 357/393/357 361/399/361
f  361/399/361 362/400/362 359/395/359
f  62/397/62 359/395/359 362/400/362
f  362/400/362 63/401/63 62/397/62
f  360/398/360 342/374/342 344/376/344
f  344/376/344 363/402/363 360/398/360
f  361/399/361 360/398/360 363/402/363
f  363/402/363 364/403/364 361/399/361
f  362/400/362 361/399/361 364/403/364
f  364/403/364 365/404/365 362/400/362
f  63/401/63 362/400/362 365/404/365
f  365/404/365 64/405/64 63/401/63
f  363/402/363 344/376/344 108/378/108
f  108/378/108 109/406/109 363/402/363
f  364/403/364 363/402/363 109/406/109
f  109/406/109 113/407/113 364/403/364
f  365/404/365 364/403/364 113/407/113
f  113/407/113 117/408/117 365/404/365
f  64/405/64 365/404/365 117/408/117
f  117/408/117 65/409/65 64/405/64
f  366/410/366 339/371/339 354/390/354
f  354/390/354 367/411/367 366/410/366
f  368/412/368 366/410/366 367/411/367
f  367/411/367 369/413/369 368/412/368
f  370/414/370 368/412/368 369/413/369
f  369/413/369 371/415/371 370/414/370
f  252/416/252 370/414/370 371/415/371
f  371/415/371 274/417/274 252/416/252
f  367/411/367 354/390/354 356/392/356
f  356/392/356 372/418/372 367/411/367
f  369/413/369 367/411/367 372/418/372
f  372/418/372 373/419/373 369/413/369
f  371/415/371 369/413/369 373/419/373
f  373/419/373 374/420/374 371/415/371
f  274/417/274 371/415/371 374/420/374
f  374/420/374 275/421/275 274/417/274
f  372/418/372 356/392/356 358/394/358
f  358/394/358 375/422/375 372/418/372
f  373/419/373 372/418/372 375/422/375
f  375/422/375 376/423/376 373/419/373
f  374/420/374 373/419/373 376/423/376
f  376/423/376 377/424/377 374/420/374
f  275/421/275 374/420/374 377/424/377
f  377/424/377 276/425/276 275/421/275
f  375/422/375 358/394/358 32/396/32
f  32/396/32 33/426/33 375/422/375
f  376/423/376 375/422/375 33/426/33
f  33/426/33 37/427/37 376/423/376
f  377/424/377 376/423/376 37/427/37
f  37/427/37 41/428/41 377/424/377
f  276/425/276 377/424/377 41/428/41
f  41/428/41 45/429/45 276/425/276
f  340/372/340 339/371/339 366/410/366
f  366/410/366 378/430/378 340/372/340
f  346/380/346 340/372/340 378/430/378
f  378/430/378 379/431/379 346/380/346
f  350/385/350 346/380/346 379/431/379
f  379/431/379 380/432/380 350/385/350
f  180/192/180 350/385/350 380/432/380
f  380/432/380 206/222/206 180/192/180
f  378/430/378 366/410/366 368/412/368
f  368/412/368 381/433/381 378/430/378
f  379/431/379 378/430/378 381/433/381
f  381/433/381 382/434/382 379/431/379
f  380/432/380 379/431/379 382/434/382
f  382/434/382 383/435/383 380/432/380
f  206/222/206 380/432/380 383/435/383
f  383/435/383 207/223/207 206/222/206
f  381/433/381 368/412/368 370/414/370
f  370/414/370 384/436/384 381/433/381
f  382/434/382 381/433/381 384/436/384
f  384/436/384 385/437/385 382/434/382
f  383/435/383 382/434/382 385/437/385
f  385/437/385 386/438/386 383/435/383
f  207/223/207 383/435/383 386/438/386
f  386/438/386 208/224/208 207/223/207
f  384/436/384 370/414/370 252/416/252
f  252/416/252 253/439/253 384/436/384
f  385/437/385 384/436/384 253/439/253
f  253/439/253 257/440/257 385/437/385
f  386/438/386 385/437/385 257/440/257
f  257/440/257 261/441/261 386/438/386
f  208/224/208 386/438/386 261/441/261
f  261/441/261 209/225/209 208/224/208

